%YAML 1.1
%TAG !u! tag:unity3d.com,2011:
--- !u!1045 &1
EditorBuildSettings:
  m_ObjectHideFlags: 0
  serializedVersion: 2
  m_Scenes:
  - enabled: 1
    path: Assets/Scenes/SceneMainMenu.unity
    guid: f5994c20790610541b23dfd12162bd77
  - enabled: 1
    path: Assets/Scenes/SceneGamePlay.unity
    guid: 36a057ed68f53e14a94574a29af97bcc
  - enabled: 1
    path: Assets/Scenes/SceneOptions.unity
    guid: 50a51cf0a4d1e4c4194cd5efa3f1e31d
  - enabled: 1
    path: Assets/Scenes/SceneHelp.unity
    guid: d360470b0242b5a4999240b1bb6ca73f
  - enabled: 1
    path: Assets/Scenes/SceneSoundTesting.unity
    guid: 25c87c41892db3b4cab1e4ca78009c98
  m_configObjects: {}
