%YAML 1.1
%TAG !u! tag:unity3d.com,2011:
--- !u!1 &1266287015826446769
GameObject:
  m_ObjectHideFlags: 0
  m_CorrespondingSourceObject: {fileID: 0}
  m_PrefabInstance: {fileID: 0}
  m_PrefabAsset: {fileID: 0}
  serializedVersion: 6
  m_Component:
  - component: {fileID: 7781350041796708545}
  - component: {fileID: 5593532876871357400}
  - component: {fileID: 215374819115806846}
  - component: {fileID: 1071386930428619436}
  - component: {fileID: 8535786294418312985}
  m_Layer: 0
  m_Name: SphereDropItem2
  m_TagString: Item
  m_Icon: {fileID: 0}
  m_NavMeshLayer: 0
  m_StaticEditorFlags: 0
  m_IsActive: 1
--- !u!4 &7781350041796708545
Transform:
  m_ObjectHideFlags: 0
  m_CorrespondingSourceObject: {fileID: 0}
  m_PrefabInstance: {fileID: 0}
  m_PrefabAsset: {fileID: 0}
  m_GameObject: {fileID: 1266287015826446769}
  m_LocalRotation: {x: 0, y: 0, z: 0, w: 1}
  m_LocalPosition: {x: 0.1584431, y: 1.6404804, z: 0.06311989}
  m_LocalScale: {x: 1, y: 1, z: 1}
  m_Children:
  - {fileID: 4778894083828649813}
  m_Father: {fileID: 0}
  m_RootOrder: 0
  m_LocalEulerAnglesHint: {x: 0, y: 0, z: 0}
--- !u!33 &5593532876871357400
MeshFilter:
  m_ObjectHideFlags: 0
  m_CorrespondingSourceObject: {fileID: 0}
  m_PrefabInstance: {fileID: 0}
  m_PrefabAsset: {fileID: 0}
  m_GameObject: {fileID: 1266287015826446769}
  m_Mesh: {fileID: 10207, guid: 0000000000000000e000000000000000, type: 0}
--- !u!23 &215374819115806846
MeshRenderer:
  m_ObjectHideFlags: 0
  m_CorrespondingSourceObject: {fileID: 0}
  m_PrefabInstance: {fileID: 0}
  m_PrefabAsset: {fileID: 0}
  m_GameObject: {fileID: 1266287015826446769}
  m_Enabled: 0
  m_CastShadows: 1
  m_ReceiveShadows: 1
  m_DynamicOccludee: 1
  m_MotionVectors: 1
  m_LightProbeUsage: 1
  m_ReflectionProbeUsage: 1
  m_RenderingLayerMask: 1
  m_RendererPriority: 0
  m_Materials:
  - {fileID: 2100000, guid: 782db4f505d3464409fe6a37f645d188, type: 2}
  m_StaticBatchInfo:
    firstSubMesh: 0
    subMeshCount: 0
  m_StaticBatchRoot: {fileID: 0}
  m_ProbeAnchor: {fileID: 0}
  m_LightProbeVolumeOverride: {fileID: 0}
  m_ScaleInLightmap: 1
  m_PreserveUVs: 0
  m_IgnoreNormalsForChartDetection: 0
  m_ImportantGI: 0
  m_StitchLightmapSeams: 0
  m_SelectedEditorRenderState: 3
  m_MinimumChartSize: 4
  m_AutoUVMaxDistance: 0.5
  m_AutoUVMaxAngle: 89
  m_LightmapParameters: {fileID: 0}
  m_SortingLayerID: 0
  m_SortingLayer: 0
  m_SortingOrder: 0
--- !u!135 &1071386930428619436
SphereCollider:
  m_ObjectHideFlags: 0
  m_CorrespondingSourceObject: {fileID: 0}
  m_PrefabInstance: {fileID: 0}
  m_PrefabAsset: {fileID: 0}
  m_GameObject: {fileID: 1266287015826446769}
  m_Material: {fileID: 0}
  m_IsTrigger: 0
  m_Enabled: 1
  serializedVersion: 2
  m_Radius: 0.5
  m_Center: {x: 0, y: 0, z: 0}
--- !u!54 &8535786294418312985
Rigidbody:
  m_ObjectHideFlags: 0
  m_CorrespondingSourceObject: {fileID: 0}
  m_PrefabInstance: {fileID: 0}
  m_PrefabAsset: {fileID: 0}
  m_GameObject: {fileID: 1266287015826446769}
  serializedVersion: 2
  m_Mass: 1
  m_Drag: 0
  m_AngularDrag: 0.05
  m_UseGravity: 1
  m_IsKinematic: 0
  m_Interpolate: 0
  m_Constraints: 0
  m_CollisionDetection: 0
--- !u!1001 &4782107922085011169
PrefabInstance:
  m_ObjectHideFlags: 0
  serializedVersion: 2
  m_Modification:
    m_TransformParent: {fileID: 7781350041796708545}
    m_Modifications:
    - target: {fileID: 1828176872806910, guid: 64891a0eb28db934898420d80ca07cb3, type: 3}
      propertyPath: m_Name
      value: SmallExplosion
      objectReference: {fileID: 0}
    - target: {fileID: 4361801158873524, guid: 64891a0eb28db934898420d80ca07cb3, type: 3}
      propertyPath: m_LocalPosition.x
      value: -0.1584431
      objectReference: {fileID: 0}
    - target: {fileID: 4361801158873524, guid: 64891a0eb28db934898420d80ca07cb3, type: 3}
      propertyPath: m_LocalPosition.y
      value: -1.6404804
      objectReference: {fileID: 0}
    - target: {fileID: 4361801158873524, guid: 64891a0eb28db934898420d80ca07cb3, type: 3}
      propertyPath: m_LocalPosition.z
      value: -0.06311989
      objectReference: {fileID: 0}
    - target: {fileID: 4361801158873524, guid: 64891a0eb28db934898420d80ca07cb3, type: 3}
      propertyPath: m_LocalRotation.x
      value: -0
      objectReference: {fileID: 0}
    - target: {fileID: 4361801158873524, guid: 64891a0eb28db934898420d80ca07cb3, type: 3}
      propertyPath: m_LocalRotation.y
      value: -0
      objectReference: {fileID: 0}
    - target: {fileID: 4361801158873524, guid: 64891a0eb28db934898420d80ca07cb3, type: 3}
      propertyPath: m_LocalRotation.z
      value: -0
      objectReference: {fileID: 0}
    - target: {fileID: 4361801158873524, guid: 64891a0eb28db934898420d80ca07cb3, type: 3}
      propertyPath: m_LocalRotation.w
      value: 1
      objectReference: {fileID: 0}
    - target: {fileID: 4361801158873524, guid: 64891a0eb28db934898420d80ca07cb3, type: 3}
      propertyPath: m_RootOrder
      value: 0
      objectReference: {fileID: 0}
    - target: {fileID: 4361801158873524, guid: 64891a0eb28db934898420d80ca07cb3, type: 3}
      propertyPath: m_LocalEulerAnglesHint.x
      value: 0
      objectReference: {fileID: 0}
    - target: {fileID: 4361801158873524, guid: 64891a0eb28db934898420d80ca07cb3, type: 3}
      propertyPath: m_LocalEulerAnglesHint.y
      value: 0
      objectReference: {fileID: 0}
    - target: {fileID: 4361801158873524, guid: 64891a0eb28db934898420d80ca07cb3, type: 3}
      propertyPath: m_LocalEulerAnglesHint.z
      value: 0
      objectReference: {fileID: 0}
    - target: {fileID: 198263872644927810, guid: 64891a0eb28db934898420d80ca07cb3,
        type: 3}
      propertyPath: UVModule.flipU
      value: 0
      objectReference: {fileID: 0}
    - target: {fileID: 198263872644927810, guid: 64891a0eb28db934898420d80ca07cb3,
        type: 3}
      propertyPath: UVModule.flipV
      value: 0
      objectReference: {fileID: 0}
    - target: {fileID: 198656289721292014, guid: 64891a0eb28db934898420d80ca07cb3,
        type: 3}
      propertyPath: UVModule.flipU
      value: 0
      objectReference: {fileID: 0}
    - target: {fileID: 198656289721292014, guid: 64891a0eb28db934898420d80ca07cb3,
        type: 3}
      propertyPath: UVModule.flipV
      value: 0
      objectReference: {fileID: 0}
    - target: {fileID: 199132262764125350, guid: 64891a0eb28db934898420d80ca07cb3,
        type: 3}
      propertyPath: m_Flip.x
      value: 0.5
      objectReference: {fileID: 0}
    - target: {fileID: 199132262764125350, guid: 64891a0eb28db934898420d80ca07cb3,
        type: 3}
      propertyPath: m_Flip.y
      value: 0.5
      objectReference: {fileID: 0}
    - target: {fileID: 199514137936353666, guid: 64891a0eb28db934898420d80ca07cb3,
        type: 3}
      propertyPath: m_Flip.x
      value: 0.5
      objectReference: {fileID: 0}
    - target: {fileID: 199514137936353666, guid: 64891a0eb28db934898420d80ca07cb3,
        type: 3}
      propertyPath: m_Flip.y
      value: 0.5
      objectReference: {fileID: 0}
    m_RemovedComponents: []
  m_SourcePrefab: {fileID: 100100000, guid: 64891a0eb28db934898420d80ca07cb3, type: 3}
--- !u!4 &4778894083828649813 stripped
Transform:
  m_CorrespondingSourceObject: {fileID: 4361801158873524, guid: 64891a0eb28db934898420d80ca07cb3,
    type: 3}
  m_PrefabInstance: {fileID: 4782107922085011169}
  m_PrefabAsset: {fileID: 0}
