//Maya ASCII 2019 scene
//Name: Tree.ma
//Last modified: Fri, Aug 16, 2019 02:40:36 PM
//Codeset: 1252
requires maya "2019";
requires "mtoa" "3.1.2";
requires -nodeType "polyPlatonic" "modelingToolkit" "0.0.0.0";
requires "mtoa" "3.1.2";
currentUnit -l centimeter -a degree -t film;
fileInfo "application" "maya";
fileInfo "product" "Maya 2019";
fileInfo "version" "2019";
fileInfo "cutIdentifier" "201812112215-434d8d9c04";
fileInfo "osv" "Microsoft Windows 10 Technical Preview  (Build 18362)\n";
fileInfo "license" "education";
createNode transform -s -n "persp";
	rename -uid "D9C6A9CB-4C1B-8F63-77EE-C19E67B26888";
	setAttr ".v" no;
	setAttr ".t" -type "double3" 55.342208873385744 8.4289676890425493 36.903349857571968 ;
	setAttr ".r" -type "double3" 2.6616472698332201 417.79999999992089 0 ;
createNode camera -s -n "perspShape" -p "persp";
	rename -uid "BEB0F5B7-40D2-BBE5-E41F-A0B487BDC282";
	setAttr -k off ".v" no;
	setAttr ".fl" 34.999999999999993;
	setAttr ".coi" 68.702425511979257;
	setAttr ".imn" -type "string" "persp";
	setAttr ".den" -type "string" "persp_depth";
	setAttr ".man" -type "string" "persp_mask";
	setAttr ".hc" -type "string" "viewSet -p %camera";
	setAttr ".ai_translator" -type "string" "perspective";
createNode transform -s -n "top";
	rename -uid "3AC0D1DC-4015-A14C-15F7-F785D742421C";
	setAttr ".v" no;
	setAttr ".t" -type "double3" 0 1000.1 0 ;
	setAttr ".r" -type "double3" -90 0 0 ;
createNode camera -s -n "topShape" -p "top";
	rename -uid "84020FCB-4B93-D2E6-8972-01B67376841C";
	setAttr -k off ".v" no;
	setAttr ".rnd" no;
	setAttr ".coi" 1000.1;
	setAttr ".ow" 30;
	setAttr ".imn" -type "string" "top";
	setAttr ".den" -type "string" "top_depth";
	setAttr ".man" -type "string" "top_mask";
	setAttr ".hc" -type "string" "viewSet -t %camera";
	setAttr ".o" yes;
	setAttr ".ai_translator" -type "string" "orthographic";
createNode transform -s -n "front";
	rename -uid "A3A39EFE-43B2-55DD-6E42-9F8AEB0D8D2F";
	setAttr ".v" no;
	setAttr ".t" -type "double3" -4.1020526322648641 4.3950563917123606 1000.1 ;
createNode camera -s -n "frontShape" -p "front";
	rename -uid "1225837A-481F-FC74-FFE5-9FA10AC15666";
	setAttr -k off ".v" no;
	setAttr ".rnd" no;
	setAttr ".coi" 1000.1;
	setAttr ".ow" 28.551786071185425;
	setAttr ".imn" -type "string" "front";
	setAttr ".den" -type "string" "front_depth";
	setAttr ".man" -type "string" "front_mask";
	setAttr ".hc" -type "string" "viewSet -f %camera";
	setAttr ".o" yes;
	setAttr ".ai_translator" -type "string" "orthographic";
createNode transform -s -n "side";
	rename -uid "77316F11-46C8-6B5D-3132-849BC5750FFC";
	setAttr ".v" no;
	setAttr ".t" -type "double3" 1000.1 0 0 ;
	setAttr ".r" -type "double3" 0 90 0 ;
createNode camera -s -n "sideShape" -p "side";
	rename -uid "81B335BE-451B-A7D5-49A5-FDAA89D90343";
	setAttr -k off ".v" no;
	setAttr ".rnd" no;
	setAttr ".coi" 1000.1;
	setAttr ".ow" 30;
	setAttr ".imn" -type "string" "side";
	setAttr ".den" -type "string" "side_depth";
	setAttr ".man" -type "string" "side_mask";
	setAttr ".hc" -type "string" "viewSet -s %camera";
	setAttr ".o" yes;
	setAttr ".ai_translator" -type "string" "orthographic";
createNode transform -n "pCylinder2";
	rename -uid "16587F4F-40E7-D002-BE9D-49AD94BC7F18";
	setAttr ".t" -type "double3" 0 5.9073004925235075 0 ;
	setAttr ".s" -type "double3" 0.27672931518947746 6.0055777723366592 0.27672931518947746 ;
createNode mesh -n "pCylinderShape2" -p "pCylinder2";
	rename -uid "03F07E96-4E06-D780-C7E7-A88D889EF61B";
	setAttr -k off ".v";
	setAttr ".vir" yes;
	setAttr ".vif" yes;
	setAttr ".pv" -type "double2" 0.49999988079071045 0.45252951979637146 ;
	setAttr ".uvst[0].uvsn" -type "string" "map1";
	setAttr ".cuvs" -type "string" "map1";
	setAttr ".dcc" -type "string" "Ambient+Diffuse";
	setAttr ".covm[0]"  0 1 1;
	setAttr ".cdvm[0]"  0 1 1;
	setAttr -s 40 ".pt";
	setAttr ".pt[0]" -type "float3" 2.6112823 0 -0.84845906 ;
	setAttr ".pt[1]" -type "float3" 2.2212892 0 -1.6138653 ;
	setAttr ".pt[2]" -type "float3" 1.6138659 0 -2.2212884 ;
	setAttr ".pt[3]" -type "float3" 0.8484596 0 -2.6112821 ;
	setAttr ".pt[4]" -type "float3" 3.2730952e-07 0 -2.7456717 ;
	setAttr ".pt[5]" -type "float3" -0.84845906 0 -2.6112821 ;
	setAttr ".pt[6]" -type "float3" -1.6138651 0 -2.2212884 ;
	setAttr ".pt[7]" -type "float3" -2.2212884 0 -1.6138645 ;
	setAttr ".pt[8]" -type "float3" -2.6112814 0 -0.84845877 ;
	setAttr ".pt[9]" -type "float3" -2.7456713 0 4.9096377e-07 ;
	setAttr ".pt[10]" -type "float3" -2.6112814 0 0.8484596 ;
	setAttr ".pt[11]" -type "float3" -2.2212884 0 1.6138654 ;
	setAttr ".pt[12]" -type "float3" -1.6138645 0 2.2212884 ;
	setAttr ".pt[13]" -type "float3" -0.84845889 0 2.6112821 ;
	setAttr ".pt[14]" -type "float3" 2.4548189e-07 0 2.7456715 ;
	setAttr ".pt[15]" -type "float3" 0.84845912 0 2.6112821 ;
	setAttr ".pt[16]" -type "float3" 1.6138651 0 2.2212884 ;
	setAttr ".pt[17]" -type "float3" 2.2212884 0 1.6138654 ;
	setAttr ".pt[18]" -type "float3" 2.6112814 0 0.84845936 ;
	setAttr ".pt[19]" -type "float3" 2.7456713 0 4.9096377e-07 ;
	setAttr ".pt[82]" -type "float3" 0.04552035 5.5511151e-17 1.3517761 ;
	setAttr ".pt[83]" -type "float3" 0.20496751 5.5511151e-17 1.0388403 ;
	setAttr ".pt[84]" -type "float3" 0.45331371 5.5511151e-17 0.79049063 ;
	setAttr ".pt[85]" -type "float3" 0.76624602 5.5511151e-17 0.6310488 ;
	setAttr ".pt[86]" -type "float3" 1.1131358 5.5511151e-17 0.57610452 ;
	setAttr ".pt[87]" -type "float3" 1.4600272 5.5511151e-17 0.6310488 ;
	setAttr ".pt[88]" -type "float3" 1.7729573 5.5511151e-17 0.79049063 ;
	setAttr ".pt[89]" -type "float3" 2.021307 5.5511151e-17 1.0388403 ;
	setAttr ".pt[90]" -type "float3" 2.1807544 5.5511151e-17 1.3517704 ;
	setAttr ".pt[91]" -type "float3" 2.2356932 5.5511151e-17 1.6986618 ;
	setAttr ".pt[92]" -type "float3" 2.1807494 5.5511151e-17 2.0455532 ;
	setAttr ".pt[93]" -type "float3" 2.021307 5.5511151e-17 2.3584862 ;
	setAttr ".pt[94]" -type "float3" 1.7729573 5.5511151e-17 2.6068323 ;
	setAttr ".pt[95]" -type "float3" 1.4600272 5.5511151e-17 2.7662787 ;
	setAttr ".pt[96]" -type "float3" 1.1131358 5.5511151e-17 2.8212185 ;
	setAttr ".pt[97]" -type "float3" 0.76624602 5.5511151e-17 2.7662787 ;
	setAttr ".pt[98]" -type "float3" 0.45331371 5.5511151e-17 2.6068323 ;
	setAttr ".pt[99]" -type "float3" 0.20496751 5.5511151e-17 2.3584864 ;
	setAttr ".pt[100]" -type "float3" 0.04552035 5.5511151e-17 2.0455532 ;
	setAttr ".pt[101]" -type "float3" -0.009421397 5.5511151e-17 1.6986618 ;
	setAttr ".ai_translator" -type "string" "polymesh";
createNode transform -n "pCylinder3";
	rename -uid "11E97AEF-426C-10E6-A60D-7F981A6612A5";
	setAttr ".t" -type "double3" -1.6404707443128781 9.0471822540716609 1.0722517731212227 ;
	setAttr ".r" -type "double3" 45.06784655478554 0 0 ;
	setAttr ".s" -type "double3" 0.092427813586013041 2.0058678005897876 0.092427813586013041 ;
	setAttr ".rp" -type "double3" -0.42771284897327411 0.021353917692842242 0.36376853603473647 ;
	setAttr ".sp" -type "double3" -3.3436894416809082 0.0076922178268432617 2.8437981605529785 ;
	setAttr ".spt" -type "double3" 2.9159765927076342 0.01366169986599898 -2.480029624518242 ;
createNode mesh -n "pCylinderShape3" -p "pCylinder3";
	rename -uid "3A74E92C-4593-BFA1-1E22-ACA2BAD328C6";
	setAttr -k off ".v";
	setAttr ".vir" yes;
	setAttr ".vif" yes;
	setAttr ".pv" -type "double2" 0.49999998509883881 0.15624996274709702 ;
	setAttr ".uvst[0].uvsn" -type "string" "map1";
	setAttr -s 126 ".uvst[0].uvsp[0:125]" -type "float2" 0.64860266 0.10796607
		 0.62640899 0.064408496 0.59184152 0.029841021 0.54828393 0.0076473355 0.5 -7.4505806e-08
		 0.45171607 0.0076473504 0.40815851 0.029841051 0.37359107 0.064408526 0.3513974 0.1079661
		 0.34374997 0.15625 0.3513974 0.2045339 0.37359107 0.24809146 0.40815854 0.28265893
		 0.4517161 0.3048526 0.5 0.3125 0.54828387 0.3048526 0.59184146 0.28265893 0.62640893
		 0.24809146 0.6486026 0.2045339 0.65625 0.15625 0.375 0.3125 0.38749999 0.3125 0.39999998
		 0.3125 0.41249996 0.3125 0.42499995 0.3125 0.43749994 0.3125 0.44999993 0.3125 0.46249992
		 0.3125 0.4749999 0.3125 0.48749989 0.3125 0.49999988 0.3125 0.51249987 0.3125 0.52499986
		 0.3125 0.53749985 0.3125 0.54999983 0.3125 0.56249982 0.3125 0.57499981 0.3125 0.5874998
		 0.3125 0.59999979 0.3125 0.61249977 0.3125 0.62499976 0.3125 0.375 0.68843985 0.38749999
		 0.68843985 0.39999998 0.68843985 0.41249996 0.68843985 0.42499995 0.68843985 0.43749994
		 0.68843985 0.44999993 0.68843985 0.46249992 0.68843985 0.4749999 0.68843985 0.48749989
		 0.68843985 0.49999988 0.68843985 0.51249987 0.68843985 0.52499986 0.68843985 0.53749985
		 0.68843985 0.54999983 0.68843985 0.56249982 0.68843985 0.57499981 0.68843985 0.5874998
		 0.68843985 0.59999979 0.68843985 0.61249977 0.68843985 0.62499976 0.68843985 0.64860266
		 0.79546607 0.62640899 0.75190848 0.59184152 0.71734101 0.54828393 0.69514734 0.5
		 0.68749994 0.45171607 0.69514734 0.40815851 0.71734107 0.37359107 0.75190854 0.3513974
		 0.79546607 0.34374997 0.84375 0.3513974 0.89203393 0.37359107 0.93559146 0.40815854
		 0.97015893 0.4517161 0.9923526 0.5 1 0.54828387 0.9923526 0.59184146 0.97015893 0.62640893
		 0.93559146 0.6486026 0.89203393 0.65625 0.84375 0.5 0.15000001 0.5 0.83749998 0.51249987
		 0.57434261 0.49999988 0.57434261 0.48749989 0.57434261 0.4749999 0.57434261 0.46249992
		 0.57434261 0.44999993 0.57434261 0.43749994 0.57434261 0.42499995 0.57434261 0.41249996
		 0.57434261 0.39999998 0.57434261 0.38749999 0.57434261 0.62499976 0.57434261 0.375
		 0.57434261 0.61249977 0.57434261 0.59999979 0.57434261 0.5874998 0.57434261 0.57499981
		 0.57434261 0.56249982 0.57434261 0.54999983 0.57434261 0.53749985 0.57434261 0.52499986
		 0.57434261 0.51249987 0.63815606 0.49999988 0.63815606 0.48749989 0.63815606 0.4749999
		 0.63815606 0.46249992 0.63815606 0.44999993 0.63815606 0.43749994 0.63815606 0.42499995
		 0.63815606 0.41249996 0.63815606 0.39999998 0.63815606 0.38749999 0.63815606 0.62499976
		 0.63815606 0.375 0.63815606 0.61249977 0.63815606 0.59999979 0.63815606 0.5874998
		 0.63815606 0.57499981 0.63815606 0.56249982 0.63815606 0.54999983 0.63815606 0.53749985
		 0.63815606 0.52499986 0.63815606;
	setAttr ".cuvs" -type "string" "map1";
	setAttr ".dcc" -type "string" "Ambient+Diffuse";
	setAttr ".covm[0]"  0 1 1;
	setAttr ".cdvm[0]"  0 1 1;
	setAttr -s 81 ".pt";
	setAttr ".pt[0]" -type "float3" 1.2179557 0.81365877 5.6812444 ;
	setAttr ".pt[1]" -type "float3" 1.0360546 0.823044 5.5259295 ;
	setAttr ".pt[2]" -type "float3" 0.75273716 0.83049214 5.402668 ;
	setAttr ".pt[3]" -type "float3" 0.39573604 0.83527416 5.323545 ;
	setAttr ".pt[4]" -type "float3" -2.2315219e-06 0.83692193 5.2962871 ;
	setAttr ".pt[5]" -type "float3" -0.39574072 0.83527416 5.323545 ;
	setAttr ".pt[6]" -type "float3" -0.7527411 0.83049214 5.402668 ;
	setAttr ".pt[7]" -type "float3" -1.0360581 0.82304394 5.5259295 ;
	setAttr ".pt[8]" -type "float3" -1.217959 0.81365877 5.6812444 ;
	setAttr ".pt[9]" -type "float3" -1.2806382 0.80325502 5.853415 ;
	setAttr ".pt[10]" -type "float3" -1.217959 0.79285127 6.025588 ;
	setAttr ".pt[11]" -type "float3" -1.0360581 0.78346598 6.1809039 ;
	setAttr ".pt[12]" -type "float3" -0.75274098 0.77601779 6.3041658 ;
	setAttr ".pt[13]" -type "float3" -0.39574066 0.77123564 6.3832884 ;
	setAttr ".pt[14]" -type "float3" -2.2696909e-06 0.76958793 6.4105463 ;
	setAttr ".pt[15]" -type "float3" 0.39573598 0.77123564 6.3832884 ;
	setAttr ".pt[16]" -type "float3" 0.75273633 0.77601779 6.3041658 ;
	setAttr ".pt[17]" -type "float3" 1.0360533 0.78346598 6.1809039 ;
	setAttr ".pt[18]" -type "float3" 1.2179543 0.79285127 6.025588 ;
	setAttr ".pt[19]" -type "float3" 1.2806334 0.80325502 5.853415 ;
	setAttr ".pt[20]" -type "float3" -0.80067158 -0.014631497 0.2571792 ;
	setAttr ".pt[21]" -type "float3" -0.6810919 -0.012446295 0.48918414 ;
	setAttr ".pt[22]" -type "float3" -0.49484208 -0.0090427622 0.6733039 ;
	setAttr ".pt[23]" -type "float3" -0.26015386 -0.0047540618 0.7915163 ;
	setAttr ".pt[24]" -type "float3" -7.4457638e-08 -1.8676971e-09 0.83224946 ;
	setAttr ".pt[25]" -type "float3" 0.26015374 0.0047540581 0.7915163 ;
	setAttr ".pt[26]" -type "float3" 0.49484178 0.0090427576 0.67330378 ;
	setAttr ".pt[27]" -type "float3" 0.68109149 0.012446287 0.48918396 ;
	setAttr ".pt[28]" -type "float3" 0.8006711 0.014631491 0.25717911 ;
	setAttr ".pt[29]" -type "float3" 0.84187502 0.015384456 -1.2693175e-07 ;
	setAttr ".pt[30]" -type "float3" 0.8006711 0.014631491 -0.25717935 ;
	setAttr ".pt[31]" -type "float3" 0.68109143 0.012446286 -0.4891842 ;
	setAttr ".pt[32]" -type "float3" 0.49484167 0.0090427557 -0.6733039 ;
	setAttr ".pt[33]" -type "float3" 0.26015365 0.0047540572 -0.79151624 ;
	setAttr ".pt[34]" -type "float3" -4.9642509e-08 -1.4007726e-09 -0.83224934 ;
	setAttr ".pt[35]" -type "float3" -0.26015374 -0.0047540586 -0.79151618 ;
	setAttr ".pt[36]" -type "float3" -0.49484172 -0.0090427576 -0.6733039 ;
	setAttr ".pt[37]" -type "float3" -0.68109143 -0.012446288 -0.48918414 ;
	setAttr ".pt[38]" -type "float3" -0.80067104 -0.014631491 -0.25717929 ;
	setAttr ".pt[39]" -type "float3" -0.84187496 -0.015384457 -1.2693175e-07 ;
	setAttr ".pt[40]" -type "float3" 3.205937e-06 0.80325484 5.8534226 ;
	setAttr ".pt[42]" -type "float3" -6.6873789 0 5.6875968 ;
	setAttr ".pt[43]" -type "float3" -6.6873789 0 5.6875968 ;
	setAttr ".pt[44]" -type "float3" -6.6873789 0 5.6875968 ;
	setAttr ".pt[45]" -type "float3" -6.6873789 0 5.6875968 ;
	setAttr ".pt[46]" -type "float3" -6.6873789 0 5.6875968 ;
	setAttr ".pt[47]" -type "float3" -6.6873789 0 5.6875968 ;
	setAttr ".pt[48]" -type "float3" -6.6873789 0 5.6875968 ;
	setAttr ".pt[49]" -type "float3" -6.6873789 0 5.6875968 ;
	setAttr ".pt[50]" -type "float3" -6.6873789 0 5.6875968 ;
	setAttr ".pt[51]" -type "float3" -6.6873789 0 5.6875968 ;
	setAttr ".pt[52]" -type "float3" -6.6873789 0 5.6875968 ;
	setAttr ".pt[53]" -type "float3" -6.6873789 0 5.6875968 ;
	setAttr ".pt[54]" -type "float3" -6.6873789 0 5.6875968 ;
	setAttr ".pt[55]" -type "float3" -6.6873789 0 5.6875968 ;
	setAttr ".pt[56]" -type "float3" -6.6873789 0 5.6875968 ;
	setAttr ".pt[57]" -type "float3" -6.6873789 0 5.6875968 ;
	setAttr ".pt[58]" -type "float3" -6.6873789 0 5.6875968 ;
	setAttr ".pt[59]" -type "float3" -6.6873789 0 5.6875968 ;
	setAttr ".pt[60]" -type "float3" -6.6873789 0 5.6875968 ;
	setAttr ".pt[61]" -type "float3" -6.6873789 0 5.6875968 ;
	setAttr ".pt[62]" -type "float3" -4.7590709 -0.0038854673 0.25995892 ;
	setAttr ".pt[63]" -type "float3" -4.7157526 -0.0037049127 0.32090357 ;
	setAttr ".pt[64]" -type "float3" -4.6935854 -0.0031617023 0.39242512 ;
	setAttr ".pt[65]" -type "float3" -4.6947412 -0.0023090001 0.46752262 ;
	setAttr ".pt[66]" -type "float3" -4.7191019 -0.0012302772 0.53884465 ;
	setAttr ".pt[67]" -type "float3" -4.7642856 -3.1115924e-05 0.59941024 ;
	setAttr ".pt[68]" -type "float3" -4.82587 0.0011710714 0.64329082 ;
	setAttr ".pt[69]" -type "float3" -4.8978243 0.0022586375 0.66618997 ;
	setAttr ".pt[70]" -type "float3" -4.9731059 0.0031251139 0.66586751 ;
	setAttr ".pt[71]" -type "float3" -5.0443478 0.0036856832 0.64235449 ;
	setAttr ".pt[72]" -type "float3" -5.1045737 0.0038854729 0.59795219 ;
	setAttr ".pt[73]" -type "float3" -5.1478925 0.0037049181 0.53700775 ;
	setAttr ".pt[74]" -type "float3" -5.1700592 0.0031617004 0.46548617 ;
	setAttr ".pt[75]" -type "float3" -5.1689034 0.0023089992 0.39038855 ;
	setAttr ".pt[76]" -type "float3" -5.1445432 0.0012302765 0.31906646 ;
	setAttr ".pt[77]" -type "float3" -5.0993595 3.1121861e-05 0.25850102 ;
	setAttr ".pt[78]" -type "float3" -5.037775 -0.0011710788 0.21462056 ;
	setAttr ".pt[79]" -type "float3" -4.9658208 -0.0022586349 0.19172145 ;
	setAttr ".pt[80]" -type "float3" -4.8905396 -0.0031251132 0.19204359 ;
	setAttr ".pt[81]" -type "float3" -4.8192978 -0.0036856809 0.21555677 ;
	setAttr -s 82 ".vt[0:81]"  0.95105714 -1 -0.30901718 0.80901754 -1 -0.5877856
		 0.5877856 -1 -0.80901748 0.30901715 -1 -0.95105702 0 -1 -1.000000476837 -0.30901715 -1 -0.95105696
		 -0.58778548 -1 -0.8090173 -0.80901724 -1 -0.58778542 -0.95105678 -1 -0.30901706 -1.000000238419 -1 0
		 -0.95105678 -1 0.30901706 -0.80901718 -1 0.58778536 -0.58778536 -1 0.80901712 -0.30901706 -1 0.95105666
		 -2.9802322e-08 -1 1.000000119209 0.30901697 -1 0.9510566 0.58778524 -1 0.80901706
		 0.809017 -1 0.5877853 0.95105654 -1 0.309017 1 -1 0 0.95105714 1 -0.30901718 0.80901754 1 -0.5877856
		 0.5877856 1 -0.80901748 0.30901715 1 -0.95105702 0 1 -1.000000476837 -0.30901715 1 -0.95105696
		 -0.58778548 1 -0.8090173 -0.80901724 1 -0.58778542 -0.95105678 1 -0.30901706 -1.000000238419 1 0
		 -0.95105678 1 0.30901706 -0.80901718 1 0.58778536 -0.58778536 1 0.80901712 -0.30901706 1 0.95105666
		 -2.9802322e-08 1 1.000000119209 0.30901697 1 0.9510566 0.58778524 1 0.80901706 0.809017 1 0.5877853
		 0.95105654 1 0.309017 1 1 0 0 -1 0 0 1 0 -0.80901718 0.39300263 0.58778536 -0.95105678 0.39300263 0.30901706
		 -1.000000238419 0.39300263 0 -0.95105678 0.39300263 -0.30901706 -0.80901724 0.39300263 -0.58778542
		 -0.58778548 0.39300263 -0.8090173 -0.30901715 0.39300263 -0.95105696 0 0.39300263 -1.000000476837
		 0.30901715 0.39300263 -0.95105702 0.5877856 0.39300263 -0.80901748 0.80901754 0.39300263 -0.5877856
		 0.95105708 0.39300263 -0.30901718 1 0.39300263 0 0.95105648 0.39300263 0.309017 0.809017 0.39300263 0.5877853
		 0.58778524 0.39300263 0.80901706 0.30901697 0.39300263 0.9510566 -2.9802322e-08 0.39300263 1.000000119209
		 -0.30901706 0.39300263 0.95105666 -0.58778536 0.39300263 0.80901712 -0.80901718 0.73248994 0.58778536
		 -0.95105678 0.73248994 0.30901706 -1.000000238419 0.73248994 0 -0.95105678 0.73248994 -0.30901706
		 -0.80901724 0.73248994 -0.58778542 -0.58778548 0.73248994 -0.8090173 -0.30901715 0.73248994 -0.95105696
		 0 0.73248994 -1.000000476837 0.30901715 0.73248994 -0.95105702 0.5877856 0.73248994 -0.80901748
		 0.80901754 0.73248994 -0.5877856 0.95105708 0.73248994 -0.30901718 1 0.73248994 0
		 0.95105654 0.73248994 0.309017 0.809017 0.73248994 0.5877853 0.58778524 0.73248994 0.80901706
		 0.30901697 0.73248994 0.9510566 -2.9802322e-08 0.73248994 1.000000119209 -0.30901706 0.73248994 0.95105666
		 -0.58778536 0.73248994 0.80901712;
	setAttr -s 180 ".ed";
	setAttr ".ed[0:165]"  0 1 0 1 2 0 2 3 0 3 4 0 4 5 0 5 6 0 6 7 0 7 8 0 8 9 0
		 9 10 0 10 11 0 11 12 0 12 13 0 13 14 0 14 15 0 15 16 0 16 17 0 17 18 0 18 19 0 19 0 0
		 20 21 0 21 22 0 22 23 0 23 24 0 24 25 0 25 26 0 26 27 0 27 28 0 28 29 0 29 30 0 30 31 0
		 31 32 0 32 33 0 33 34 0 34 35 0 35 36 0 36 37 0 37 38 0 38 39 0 39 20 0 0 53 1 1 52 1
		 2 51 1 3 50 1 4 49 1 5 48 1 6 47 1 7 46 1 8 45 1 9 44 1 10 43 1 11 42 1 12 61 1 13 60 1
		 14 59 1 15 58 1 16 57 1 17 56 1 18 55 1 19 54 1 40 0 1 40 1 1 40 2 1 40 3 1 40 4 1
		 40 5 1 40 6 1 40 7 1 40 8 1 40 9 1 40 10 1 40 11 1 40 12 1 40 13 1 40 14 1 40 15 1
		 40 16 1 40 17 1 40 18 1 40 19 1 20 41 1 21 41 1 22 41 1 23 41 1 24 41 1 25 41 1 26 41 1
		 27 41 1 28 41 1 29 41 1 30 41 1 31 41 1 32 41 1 33 41 1 34 41 1 35 41 1 36 41 1 37 41 1
		 38 41 1 39 41 1 42 62 1 43 63 1 42 43 1 44 64 1 43 44 1 45 65 1 44 45 1 46 66 1 45 46 1
		 47 67 1 46 47 1 48 68 1 47 48 1 49 69 1 48 49 1 50 70 1 49 50 1 51 71 1 50 51 1 52 72 1
		 51 52 1 53 73 1 52 53 1 54 74 1 53 54 1 55 75 1 54 55 1 56 76 1 55 56 1 57 77 1 56 57 1
		 58 78 1 57 58 1 59 79 1 58 59 1 60 80 1 59 60 1 61 81 1 60 61 1 61 42 1 62 31 1 63 30 1
		 62 63 1 64 29 1 63 64 1 65 28 1 64 65 1 66 27 1 65 66 1 67 26 1 66 67 1 68 25 1 67 68 1
		 69 24 1 68 69 1 70 23 1 69 70 1 71 22 1 70 71 1 72 21 1 71 72 1 73 20 1 72 73 1 74 39 1
		 73 74 1 75 38 1;
	setAttr ".ed[166:179]" 74 75 1 76 37 1 75 76 1 77 36 1 76 77 1 78 35 1 77 78 1
		 79 34 1 78 79 1 80 33 1 79 80 1 81 32 1 80 81 1 81 62 1;
	setAttr -s 100 -ch 360 ".fc[0:99]" -type "polyFaces" 
		f 4 0 41 122 -41
		mu 0 4 20 21 94 96
		f 4 1 42 120 -42
		mu 0 4 21 22 93 94
		f 4 2 43 118 -43
		mu 0 4 22 23 92 93
		f 4 3 44 116 -44
		mu 0 4 23 24 91 92
		f 4 4 45 114 -45
		mu 0 4 24 25 90 91
		f 4 5 46 112 -46
		mu 0 4 25 26 89 90
		f 4 6 47 110 -47
		mu 0 4 26 27 88 89
		f 4 7 48 108 -48
		mu 0 4 27 28 87 88
		f 4 8 49 106 -49
		mu 0 4 28 29 86 87
		f 4 9 50 104 -50
		mu 0 4 29 30 85 86
		f 4 10 51 102 -51
		mu 0 4 30 31 84 85
		f 4 11 52 139 -52
		mu 0 4 31 32 104 84
		f 4 12 53 138 -53
		mu 0 4 32 33 103 104
		f 4 13 54 136 -54
		mu 0 4 33 34 102 103
		f 4 14 55 134 -55
		mu 0 4 34 35 101 102
		f 4 15 56 132 -56
		mu 0 4 35 36 100 101
		f 4 16 57 130 -57
		mu 0 4 36 37 99 100
		f 4 17 58 128 -58
		mu 0 4 37 38 98 99
		f 4 18 59 126 -59
		mu 0 4 38 39 97 98
		f 4 19 40 124 -60
		mu 0 4 39 40 95 97
		f 3 -1 -61 61
		mu 0 3 1 0 82
		f 3 -2 -62 62
		mu 0 3 2 1 82
		f 3 -3 -63 63
		mu 0 3 3 2 82
		f 3 -4 -64 64
		mu 0 3 4 3 82
		f 3 -5 -65 65
		mu 0 3 5 4 82
		f 3 -6 -66 66
		mu 0 3 6 5 82
		f 3 -7 -67 67
		mu 0 3 7 6 82
		f 3 -8 -68 68
		mu 0 3 8 7 82
		f 3 -9 -69 69
		mu 0 3 9 8 82
		f 3 -10 -70 70
		mu 0 3 10 9 82
		f 3 -11 -71 71
		mu 0 3 11 10 82
		f 3 -12 -72 72
		mu 0 3 12 11 82
		f 3 -13 -73 73
		mu 0 3 13 12 82
		f 3 -14 -74 74
		mu 0 3 14 13 82
		f 3 -15 -75 75
		mu 0 3 15 14 82
		f 3 -16 -76 76
		mu 0 3 16 15 82
		f 3 -17 -77 77
		mu 0 3 17 16 82
		f 3 -18 -78 78
		mu 0 3 18 17 82
		f 3 -19 -79 79
		mu 0 3 19 18 82
		f 3 -20 -80 60
		mu 0 3 0 19 82
		f 3 20 81 -81
		mu 0 3 80 79 83
		f 3 21 82 -82
		mu 0 3 79 78 83
		f 3 22 83 -83
		mu 0 3 78 77 83
		f 3 23 84 -84
		mu 0 3 77 76 83
		f 3 24 85 -85
		mu 0 3 76 75 83
		f 3 25 86 -86
		mu 0 3 75 74 83
		f 3 26 87 -87
		mu 0 3 74 73 83
		f 3 27 88 -88
		mu 0 3 73 72 83
		f 3 28 89 -89
		mu 0 3 72 71 83
		f 3 29 90 -90
		mu 0 3 71 70 83
		f 3 30 91 -91
		mu 0 3 70 69 83
		f 3 31 92 -92
		mu 0 3 69 68 83
		f 3 32 93 -93
		mu 0 3 68 67 83
		f 3 33 94 -94
		mu 0 3 67 66 83
		f 3 34 95 -95
		mu 0 3 66 65 83
		f 3 35 96 -96
		mu 0 3 65 64 83
		f 3 36 97 -97
		mu 0 3 64 63 83
		f 3 37 98 -98
		mu 0 3 63 62 83
		f 3 38 99 -99
		mu 0 3 62 81 83
		f 3 39 80 -100
		mu 0 3 81 80 83
		f 4 -103 100 142 -102
		mu 0 4 85 84 105 106
		f 4 -105 101 144 -104
		mu 0 4 86 85 106 107
		f 4 -107 103 146 -106
		mu 0 4 87 86 107 108
		f 4 -109 105 148 -108
		mu 0 4 88 87 108 109
		f 4 -111 107 150 -110
		mu 0 4 89 88 109 110
		f 4 -113 109 152 -112
		mu 0 4 90 89 110 111
		f 4 -115 111 154 -114
		mu 0 4 91 90 111 112
		f 4 -117 113 156 -116
		mu 0 4 92 91 112 113
		f 4 -119 115 158 -118
		mu 0 4 93 92 113 114
		f 4 -121 117 160 -120
		mu 0 4 94 93 114 115
		f 4 -123 119 162 -122
		mu 0 4 96 94 115 117
		f 4 -125 121 164 -124
		mu 0 4 97 95 116 118
		f 4 -127 123 166 -126
		mu 0 4 98 97 118 119
		f 4 -129 125 168 -128
		mu 0 4 99 98 119 120
		f 4 -131 127 170 -130
		mu 0 4 100 99 120 121
		f 4 -133 129 172 -132
		mu 0 4 101 100 121 122
		f 4 -135 131 174 -134
		mu 0 4 102 101 122 123
		f 4 -137 133 176 -136
		mu 0 4 103 102 123 124
		f 4 -139 135 178 -138
		mu 0 4 104 103 124 125
		f 4 -140 137 179 -101
		mu 0 4 84 104 125 105
		f 4 -143 140 -31 -142
		mu 0 4 106 105 52 51
		f 4 -145 141 -30 -144
		mu 0 4 107 106 51 50
		f 4 -147 143 -29 -146
		mu 0 4 108 107 50 49
		f 4 -149 145 -28 -148
		mu 0 4 109 108 49 48
		f 4 -151 147 -27 -150
		mu 0 4 110 109 48 47
		f 4 -153 149 -26 -152
		mu 0 4 111 110 47 46
		f 4 -155 151 -25 -154
		mu 0 4 112 111 46 45
		f 4 -157 153 -24 -156
		mu 0 4 113 112 45 44
		f 4 -159 155 -23 -158
		mu 0 4 114 113 44 43
		f 4 -161 157 -22 -160
		mu 0 4 115 114 43 42
		f 4 -163 159 -21 -162
		mu 0 4 117 115 42 41
		f 4 -165 161 -40 -164
		mu 0 4 118 116 61 60
		f 4 -167 163 -39 -166
		mu 0 4 119 118 60 59
		f 4 -169 165 -38 -168
		mu 0 4 120 119 59 58
		f 4 -171 167 -37 -170
		mu 0 4 121 120 58 57
		f 4 -173 169 -36 -172
		mu 0 4 122 121 57 56
		f 4 -175 171 -35 -174
		mu 0 4 123 122 56 55
		f 4 -177 173 -34 -176
		mu 0 4 124 123 55 54
		f 4 -179 175 -33 -178
		mu 0 4 125 124 54 53
		f 4 -180 177 -32 -141
		mu 0 4 105 125 53 52;
	setAttr ".cd" -type "dataPolyComponent" Index_Data Edge 0 ;
	setAttr ".cvd" -type "dataPolyComponent" Index_Data Vertex 0 ;
	setAttr ".pd[0]" -type "dataPolyComponent" Index_Data UV 0 ;
	setAttr ".hfd" -type "dataPolyComponent" Index_Data Face 0 ;
	setAttr ".ai_translator" -type "string" "polymesh";
createNode transform -n "pPlatonic1";
	rename -uid "D42380E1-4D41-5C62-2356-B59E12E57EE4";
	setAttr ".t" -type "double3" -0.59220458394804609 14.167324838256242 0.55194863520839021 ;
	setAttr ".r" -type "double3" 0 0 -28.070635307950006 ;
	setAttr ".s" -type "double3" 3.4089871517704964 3.4089871517704964 3.4089871517704964 ;
createNode mesh -n "pPlatonicShape1" -p "pPlatonic1";
	rename -uid "80E923FB-46D2-D3E0-A33C-1C82B0B9D613";
	setAttr -k off ".v";
	setAttr ".vir" yes;
	setAttr ".vif" yes;
	setAttr ".uvst[0].uvsn" -type "string" "map1";
	setAttr ".cuvs" -type "string" "map1";
	setAttr ".dcc" -type "string" "Ambient+Diffuse";
	setAttr ".covm[0]"  0 1 1;
	setAttr ".cdvm[0]"  0 1 1;
	setAttr ".ai_translator" -type "string" "polymesh";
createNode transform -n "pCylinder4";
	rename -uid "FE5EB529-463E-4D5B-53AD-32BA5DB1A058";
	setAttr ".t" -type "double3" -1.0483357323060298 10.72565178294604 -0.3157770718501558 ;
	setAttr ".r" -type "double3" -330.92549151928364 5.7817245498160927 375.05977673267665 ;
	setAttr ".s" -type "double3" 0.060859928378507108 1.3207817641065753 0.060859928378507108 ;
	setAttr ".rp" -type "double3" -0.42771284897327411 0.021353917692842242 0.36376853603473647 ;
	setAttr ".sp" -type "double3" -3.3436894416809082 0.0076922178268432617 2.8437981605529785 ;
	setAttr ".spt" -type "double3" 2.9159765927076342 0.01366169986599898 -2.480029624518242 ;
createNode mesh -n "pCylinderShape4" -p "pCylinder4";
	rename -uid "EF8452F0-482D-EC62-20B9-F28105DABAD3";
	setAttr -k off ".v";
	setAttr ".vir" yes;
	setAttr ".vif" yes;
	setAttr ".pv" -type "double2" 0.49999988079071045 0.63815605640411377 ;
	setAttr ".uvst[0].uvsn" -type "string" "map1";
	setAttr -s 126 ".uvst[0].uvsp[0:125]" -type "float2" 0.64860266 0.10796607
		 0.62640899 0.064408496 0.59184152 0.029841021 0.54828393 0.0076473355 0.5 -7.4505806e-08
		 0.45171607 0.0076473504 0.40815851 0.029841051 0.37359107 0.064408526 0.3513974 0.1079661
		 0.34374997 0.15625 0.3513974 0.2045339 0.37359107 0.24809146 0.40815854 0.28265893
		 0.4517161 0.3048526 0.5 0.3125 0.54828387 0.3048526 0.59184146 0.28265893 0.62640893
		 0.24809146 0.6486026 0.2045339 0.65625 0.15625 0.375 0.3125 0.38749999 0.3125 0.39999998
		 0.3125 0.41249996 0.3125 0.42499995 0.3125 0.43749994 0.3125 0.44999993 0.3125 0.46249992
		 0.3125 0.4749999 0.3125 0.48749989 0.3125 0.49999988 0.3125 0.51249987 0.3125 0.52499986
		 0.3125 0.53749985 0.3125 0.54999983 0.3125 0.56249982 0.3125 0.57499981 0.3125 0.5874998
		 0.3125 0.59999979 0.3125 0.61249977 0.3125 0.62499976 0.3125 0.375 0.68843985 0.38749999
		 0.68843985 0.39999998 0.68843985 0.41249996 0.68843985 0.42499995 0.68843985 0.43749994
		 0.68843985 0.44999993 0.68843985 0.46249992 0.68843985 0.4749999 0.68843985 0.48749989
		 0.68843985 0.49999988 0.68843985 0.51249987 0.68843985 0.52499986 0.68843985 0.53749985
		 0.68843985 0.54999983 0.68843985 0.56249982 0.68843985 0.57499981 0.68843985 0.5874998
		 0.68843985 0.59999979 0.68843985 0.61249977 0.68843985 0.62499976 0.68843985 0.64860266
		 0.79546607 0.62640899 0.75190848 0.59184152 0.71734101 0.54828393 0.69514734 0.5
		 0.68749994 0.45171607 0.69514734 0.40815851 0.71734107 0.37359107 0.75190854 0.3513974
		 0.79546607 0.34374997 0.84375 0.3513974 0.89203393 0.37359107 0.93559146 0.40815854
		 0.97015893 0.4517161 0.9923526 0.5 1 0.54828387 0.9923526 0.59184146 0.97015893 0.62640893
		 0.93559146 0.6486026 0.89203393 0.65625 0.84375 0.5 0.15000001 0.5 0.83749998 0.51249987
		 0.57434261 0.49999988 0.57434261 0.48749989 0.57434261 0.4749999 0.57434261 0.46249992
		 0.57434261 0.44999993 0.57434261 0.43749994 0.57434261 0.42499995 0.57434261 0.41249996
		 0.57434261 0.39999998 0.57434261 0.38749999 0.57434261 0.62499976 0.57434261 0.375
		 0.57434261 0.61249977 0.57434261 0.59999979 0.57434261 0.5874998 0.57434261 0.57499981
		 0.57434261 0.56249982 0.57434261 0.54999983 0.57434261 0.53749985 0.57434261 0.52499986
		 0.57434261 0.51249987 0.63815606 0.49999988 0.63815606 0.48749989 0.63815606 0.4749999
		 0.63815606 0.46249992 0.63815606 0.44999993 0.63815606 0.43749994 0.63815606 0.42499995
		 0.63815606 0.41249996 0.63815606 0.39999998 0.63815606 0.38749999 0.63815606 0.62499976
		 0.63815606 0.375 0.63815606 0.61249977 0.63815606 0.59999979 0.63815606 0.5874998
		 0.63815606 0.57499981 0.63815606 0.56249982 0.63815606 0.54999983 0.63815606 0.53749985
		 0.63815606 0.52499986 0.63815606;
	setAttr ".cuvs" -type "string" "map1";
	setAttr ".dcc" -type "string" "Ambient+Diffuse";
	setAttr ".covm[0]"  0 1 1;
	setAttr ".cdvm[0]"  0 1 1;
	setAttr -s 81 ".pt";
	setAttr ".pt[0]" -type "float3" 1.2179557 0.81365877 5.6812444 ;
	setAttr ".pt[1]" -type "float3" 1.0360546 0.823044 5.5259295 ;
	setAttr ".pt[2]" -type "float3" 0.75273716 0.83049214 5.402668 ;
	setAttr ".pt[3]" -type "float3" 0.39573604 0.83527416 5.323545 ;
	setAttr ".pt[4]" -type "float3" -2.2315219e-06 0.83692193 5.2962871 ;
	setAttr ".pt[5]" -type "float3" -0.39574072 0.83527416 5.323545 ;
	setAttr ".pt[6]" -type "float3" -0.7527411 0.83049214 5.402668 ;
	setAttr ".pt[7]" -type "float3" -1.0360581 0.82304394 5.5259295 ;
	setAttr ".pt[8]" -type "float3" -1.217959 0.81365877 5.6812444 ;
	setAttr ".pt[9]" -type "float3" -1.2806382 0.80325502 5.853415 ;
	setAttr ".pt[10]" -type "float3" -1.217959 0.79285127 6.025588 ;
	setAttr ".pt[11]" -type "float3" -1.0360581 0.78346598 6.1809039 ;
	setAttr ".pt[12]" -type "float3" -0.75274098 0.77601779 6.3041658 ;
	setAttr ".pt[13]" -type "float3" -0.39574066 0.77123564 6.3832884 ;
	setAttr ".pt[14]" -type "float3" -2.2696909e-06 0.76958793 6.4105463 ;
	setAttr ".pt[15]" -type "float3" 0.39573598 0.77123564 6.3832884 ;
	setAttr ".pt[16]" -type "float3" 0.75273633 0.77601779 6.3041658 ;
	setAttr ".pt[17]" -type "float3" 1.0360533 0.78346598 6.1809039 ;
	setAttr ".pt[18]" -type "float3" 1.2179543 0.79285127 6.025588 ;
	setAttr ".pt[19]" -type "float3" 1.2806334 0.80325502 5.853415 ;
	setAttr ".pt[20]" -type "float3" -0.80067158 -0.014631497 0.2571792 ;
	setAttr ".pt[21]" -type "float3" -0.6810919 -0.012446295 0.48918414 ;
	setAttr ".pt[22]" -type "float3" -0.49484208 -0.0090427622 0.6733039 ;
	setAttr ".pt[23]" -type "float3" -0.26015386 -0.0047540618 0.7915163 ;
	setAttr ".pt[24]" -type "float3" -7.4457638e-08 -1.8676971e-09 0.83224946 ;
	setAttr ".pt[25]" -type "float3" 0.26015374 0.0047540581 0.7915163 ;
	setAttr ".pt[26]" -type "float3" 0.49484178 0.0090427576 0.67330378 ;
	setAttr ".pt[27]" -type "float3" 0.68109149 0.012446287 0.48918396 ;
	setAttr ".pt[28]" -type "float3" 0.8006711 0.014631491 0.25717911 ;
	setAttr ".pt[29]" -type "float3" 0.84187502 0.015384456 -1.2693175e-07 ;
	setAttr ".pt[30]" -type "float3" 0.8006711 0.014631491 -0.25717935 ;
	setAttr ".pt[31]" -type "float3" 0.68109143 0.012446286 -0.4891842 ;
	setAttr ".pt[32]" -type "float3" 0.49484167 0.0090427557 -0.6733039 ;
	setAttr ".pt[33]" -type "float3" 0.26015365 0.0047540572 -0.79151624 ;
	setAttr ".pt[34]" -type "float3" -4.9642509e-08 -1.4007726e-09 -0.83224934 ;
	setAttr ".pt[35]" -type "float3" -0.26015374 -0.0047540586 -0.79151618 ;
	setAttr ".pt[36]" -type "float3" -0.49484172 -0.0090427576 -0.6733039 ;
	setAttr ".pt[37]" -type "float3" -0.68109143 -0.012446288 -0.48918414 ;
	setAttr ".pt[38]" -type "float3" -0.80067104 -0.014631491 -0.25717929 ;
	setAttr ".pt[39]" -type "float3" -0.84187496 -0.015384457 -1.2693175e-07 ;
	setAttr ".pt[40]" -type "float3" 3.205937e-06 0.80325484 5.8534226 ;
	setAttr ".pt[42]" -type "float3" -6.6873789 0 5.6875968 ;
	setAttr ".pt[43]" -type "float3" -6.6873789 0 5.6875968 ;
	setAttr ".pt[44]" -type "float3" -6.6873789 0 5.6875968 ;
	setAttr ".pt[45]" -type "float3" -6.6873789 0 5.6875968 ;
	setAttr ".pt[46]" -type "float3" -6.6873789 0 5.6875968 ;
	setAttr ".pt[47]" -type "float3" -6.6873789 0 5.6875968 ;
	setAttr ".pt[48]" -type "float3" -6.6873789 0 5.6875968 ;
	setAttr ".pt[49]" -type "float3" -6.6873789 0 5.6875968 ;
	setAttr ".pt[50]" -type "float3" -6.6873789 0 5.6875968 ;
	setAttr ".pt[51]" -type "float3" -6.6873789 0 5.6875968 ;
	setAttr ".pt[52]" -type "float3" -6.6873789 0 5.6875968 ;
	setAttr ".pt[53]" -type "float3" -6.6873789 0 5.6875968 ;
	setAttr ".pt[54]" -type "float3" -6.6873789 0 5.6875968 ;
	setAttr ".pt[55]" -type "float3" -6.6873789 0 5.6875968 ;
	setAttr ".pt[56]" -type "float3" -6.6873789 0 5.6875968 ;
	setAttr ".pt[57]" -type "float3" -6.6873789 0 5.6875968 ;
	setAttr ".pt[58]" -type "float3" -6.6873789 0 5.6875968 ;
	setAttr ".pt[59]" -type "float3" -6.6873789 0 5.6875968 ;
	setAttr ".pt[60]" -type "float3" -6.6873789 0 5.6875968 ;
	setAttr ".pt[61]" -type "float3" -6.6873789 0 5.6875968 ;
	setAttr ".pt[62]" -type "float3" -5.1306577 0.086083472 3.4672775 ;
	setAttr ".pt[63]" -type "float3" -5.0873394 0.082354374 3.5437763 ;
	setAttr ".pt[64]" -type "float3" -5.0651722 0.078607723 3.629339 ;
	setAttr ".pt[65]" -type "float3" -5.066328 0.075210236 3.7155917 ;
	setAttr ".pt[66]" -type "float3" -5.0906887 0.072494492 3.7940891 ;
	setAttr ".pt[67]" -type "float3" -5.1358724 0.070726313 3.8571491 ;
	setAttr ".pt[68]" -type "float3" -5.1974568 0.070078805 3.8985982 ;
	setAttr ".pt[69]" -type "float3" -5.2694111 0.070615336 3.9143782 ;
	setAttr ".pt[70]" -type "float3" -5.3446927 0.07228341 3.9029469 ;
	setAttr ".pt[71]" -type "float3" -5.4159346 0.074919745 3.8654206 ;
	setAttr ".pt[72]" -type "float3" -5.4761605 0.078266226 3.8054752 ;
	setAttr ".pt[73]" -type "float3" -5.5194793 0.081995323 3.728976 ;
	setAttr ".pt[74]" -type "float3" -5.541646 0.085741982 3.6434138 ;
	setAttr ".pt[75]" -type "float3" -5.5404902 0.089139469 3.5571611 ;
	setAttr ".pt[76]" -type "float3" -5.51613 0.091855206 3.4786634 ;
	setAttr ".pt[77]" -type "float3" -5.4709463 0.0936234 3.4156041 ;
	setAttr ".pt[78]" -type "float3" -5.4093618 0.094270885 3.3741546 ;
	setAttr ".pt[79]" -type "float3" -5.3374076 0.093734369 3.3583744 ;
	setAttr ".pt[80]" -type "float3" -5.2621264 0.092066281 3.3698056 ;
	setAttr ".pt[81]" -type "float3" -5.1908846 0.08942996 3.4073324 ;
	setAttr -s 82 ".vt[0:81]"  0.95105714 -1 -0.30901718 0.80901754 -1 -0.5877856
		 0.5877856 -1 -0.80901748 0.30901715 -1 -0.95105702 0 -1 -1.000000476837 -0.30901715 -1 -0.95105696
		 -0.58778548 -1 -0.8090173 -0.80901724 -1 -0.58778542 -0.95105678 -1 -0.30901706 -1.000000238419 -1 0
		 -0.95105678 -1 0.30901706 -0.80901718 -1 0.58778536 -0.58778536 -1 0.80901712 -0.30901706 -1 0.95105666
		 -2.9802322e-08 -1 1.000000119209 0.30901697 -1 0.9510566 0.58778524 -1 0.80901706
		 0.809017 -1 0.5877853 0.95105654 -1 0.309017 1 -1 0 0.95105714 1 -0.30901718 0.80901754 1 -0.5877856
		 0.5877856 1 -0.80901748 0.30901715 1 -0.95105702 0 1 -1.000000476837 -0.30901715 1 -0.95105696
		 -0.58778548 1 -0.8090173 -0.80901724 1 -0.58778542 -0.95105678 1 -0.30901706 -1.000000238419 1 0
		 -0.95105678 1 0.30901706 -0.80901718 1 0.58778536 -0.58778536 1 0.80901712 -0.30901706 1 0.95105666
		 -2.9802322e-08 1 1.000000119209 0.30901697 1 0.9510566 0.58778524 1 0.80901706 0.809017 1 0.5877853
		 0.95105654 1 0.309017 1 1 0 0 -1 0 0 1 0 -0.80901718 0.39300263 0.58778536 -0.95105678 0.39300263 0.30901706
		 -1.000000238419 0.39300263 0 -0.95105678 0.39300263 -0.30901706 -0.80901724 0.39300263 -0.58778542
		 -0.58778548 0.39300263 -0.8090173 -0.30901715 0.39300263 -0.95105696 0 0.39300263 -1.000000476837
		 0.30901715 0.39300263 -0.95105702 0.5877856 0.39300263 -0.80901748 0.80901754 0.39300263 -0.5877856
		 0.95105708 0.39300263 -0.30901718 1 0.39300263 0 0.95105648 0.39300263 0.309017 0.809017 0.39300263 0.5877853
		 0.58778524 0.39300263 0.80901706 0.30901697 0.39300263 0.9510566 -2.9802322e-08 0.39300263 1.000000119209
		 -0.30901706 0.39300263 0.95105666 -0.58778536 0.39300263 0.80901712 -0.80901718 0.73248994 0.58778536
		 -0.95105678 0.73248994 0.30901706 -1.000000238419 0.73248994 0 -0.95105678 0.73248994 -0.30901706
		 -0.80901724 0.73248994 -0.58778542 -0.58778548 0.73248994 -0.8090173 -0.30901715 0.73248994 -0.95105696
		 0 0.73248994 -1.000000476837 0.30901715 0.73248994 -0.95105702 0.5877856 0.73248994 -0.80901748
		 0.80901754 0.73248994 -0.5877856 0.95105708 0.73248994 -0.30901718 1 0.73248994 0
		 0.95105654 0.73248994 0.309017 0.809017 0.73248994 0.5877853 0.58778524 0.73248994 0.80901706
		 0.30901697 0.73248994 0.9510566 -2.9802322e-08 0.73248994 1.000000119209 -0.30901706 0.73248994 0.95105666
		 -0.58778536 0.73248994 0.80901712;
	setAttr -s 180 ".ed";
	setAttr ".ed[0:165]"  0 1 0 1 2 0 2 3 0 3 4 0 4 5 0 5 6 0 6 7 0 7 8 0 8 9 0
		 9 10 0 10 11 0 11 12 0 12 13 0 13 14 0 14 15 0 15 16 0 16 17 0 17 18 0 18 19 0 19 0 0
		 20 21 0 21 22 0 22 23 0 23 24 0 24 25 0 25 26 0 26 27 0 27 28 0 28 29 0 29 30 0 30 31 0
		 31 32 0 32 33 0 33 34 0 34 35 0 35 36 0 36 37 0 37 38 0 38 39 0 39 20 0 0 53 1 1 52 1
		 2 51 1 3 50 1 4 49 1 5 48 1 6 47 1 7 46 1 8 45 1 9 44 1 10 43 1 11 42 1 12 61 1 13 60 1
		 14 59 1 15 58 1 16 57 1 17 56 1 18 55 1 19 54 1 40 0 1 40 1 1 40 2 1 40 3 1 40 4 1
		 40 5 1 40 6 1 40 7 1 40 8 1 40 9 1 40 10 1 40 11 1 40 12 1 40 13 1 40 14 1 40 15 1
		 40 16 1 40 17 1 40 18 1 40 19 1 20 41 1 21 41 1 22 41 1 23 41 1 24 41 1 25 41 1 26 41 1
		 27 41 1 28 41 1 29 41 1 30 41 1 31 41 1 32 41 1 33 41 1 34 41 1 35 41 1 36 41 1 37 41 1
		 38 41 1 39 41 1 42 62 1 43 63 1 42 43 1 44 64 1 43 44 1 45 65 1 44 45 1 46 66 1 45 46 1
		 47 67 1 46 47 1 48 68 1 47 48 1 49 69 1 48 49 1 50 70 1 49 50 1 51 71 1 50 51 1 52 72 1
		 51 52 1 53 73 1 52 53 1 54 74 1 53 54 1 55 75 1 54 55 1 56 76 1 55 56 1 57 77 1 56 57 1
		 58 78 1 57 58 1 59 79 1 58 59 1 60 80 1 59 60 1 61 81 1 60 61 1 61 42 1 62 31 1 63 30 1
		 62 63 1 64 29 1 63 64 1 65 28 1 64 65 1 66 27 1 65 66 1 67 26 1 66 67 1 68 25 1 67 68 1
		 69 24 1 68 69 1 70 23 1 69 70 1 71 22 1 70 71 1 72 21 1 71 72 1 73 20 1 72 73 1 74 39 1
		 73 74 1 75 38 1;
	setAttr ".ed[166:179]" 74 75 1 76 37 1 75 76 1 77 36 1 76 77 1 78 35 1 77 78 1
		 79 34 1 78 79 1 80 33 1 79 80 1 81 32 1 80 81 1 81 62 1;
	setAttr -s 100 -ch 360 ".fc[0:99]" -type "polyFaces" 
		f 4 0 41 122 -41
		mu 0 4 20 21 94 96
		f 4 1 42 120 -42
		mu 0 4 21 22 93 94
		f 4 2 43 118 -43
		mu 0 4 22 23 92 93
		f 4 3 44 116 -44
		mu 0 4 23 24 91 92
		f 4 4 45 114 -45
		mu 0 4 24 25 90 91
		f 4 5 46 112 -46
		mu 0 4 25 26 89 90
		f 4 6 47 110 -47
		mu 0 4 26 27 88 89
		f 4 7 48 108 -48
		mu 0 4 27 28 87 88
		f 4 8 49 106 -49
		mu 0 4 28 29 86 87
		f 4 9 50 104 -50
		mu 0 4 29 30 85 86
		f 4 10 51 102 -51
		mu 0 4 30 31 84 85
		f 4 11 52 139 -52
		mu 0 4 31 32 104 84
		f 4 12 53 138 -53
		mu 0 4 32 33 103 104
		f 4 13 54 136 -54
		mu 0 4 33 34 102 103
		f 4 14 55 134 -55
		mu 0 4 34 35 101 102
		f 4 15 56 132 -56
		mu 0 4 35 36 100 101
		f 4 16 57 130 -57
		mu 0 4 36 37 99 100
		f 4 17 58 128 -58
		mu 0 4 37 38 98 99
		f 4 18 59 126 -59
		mu 0 4 38 39 97 98
		f 4 19 40 124 -60
		mu 0 4 39 40 95 97
		f 3 -1 -61 61
		mu 0 3 1 0 82
		f 3 -2 -62 62
		mu 0 3 2 1 82
		f 3 -3 -63 63
		mu 0 3 3 2 82
		f 3 -4 -64 64
		mu 0 3 4 3 82
		f 3 -5 -65 65
		mu 0 3 5 4 82
		f 3 -6 -66 66
		mu 0 3 6 5 82
		f 3 -7 -67 67
		mu 0 3 7 6 82
		f 3 -8 -68 68
		mu 0 3 8 7 82
		f 3 -9 -69 69
		mu 0 3 9 8 82
		f 3 -10 -70 70
		mu 0 3 10 9 82
		f 3 -11 -71 71
		mu 0 3 11 10 82
		f 3 -12 -72 72
		mu 0 3 12 11 82
		f 3 -13 -73 73
		mu 0 3 13 12 82
		f 3 -14 -74 74
		mu 0 3 14 13 82
		f 3 -15 -75 75
		mu 0 3 15 14 82
		f 3 -16 -76 76
		mu 0 3 16 15 82
		f 3 -17 -77 77
		mu 0 3 17 16 82
		f 3 -18 -78 78
		mu 0 3 18 17 82
		f 3 -19 -79 79
		mu 0 3 19 18 82
		f 3 -20 -80 60
		mu 0 3 0 19 82
		f 3 20 81 -81
		mu 0 3 80 79 83
		f 3 21 82 -82
		mu 0 3 79 78 83
		f 3 22 83 -83
		mu 0 3 78 77 83
		f 3 23 84 -84
		mu 0 3 77 76 83
		f 3 24 85 -85
		mu 0 3 76 75 83
		f 3 25 86 -86
		mu 0 3 75 74 83
		f 3 26 87 -87
		mu 0 3 74 73 83
		f 3 27 88 -88
		mu 0 3 73 72 83
		f 3 28 89 -89
		mu 0 3 72 71 83
		f 3 29 90 -90
		mu 0 3 71 70 83
		f 3 30 91 -91
		mu 0 3 70 69 83
		f 3 31 92 -92
		mu 0 3 69 68 83
		f 3 32 93 -93
		mu 0 3 68 67 83
		f 3 33 94 -94
		mu 0 3 67 66 83
		f 3 34 95 -95
		mu 0 3 66 65 83
		f 3 35 96 -96
		mu 0 3 65 64 83
		f 3 36 97 -97
		mu 0 3 64 63 83
		f 3 37 98 -98
		mu 0 3 63 62 83
		f 3 38 99 -99
		mu 0 3 62 81 83
		f 3 39 80 -100
		mu 0 3 81 80 83
		f 4 -103 100 142 -102
		mu 0 4 85 84 105 106
		f 4 -105 101 144 -104
		mu 0 4 86 85 106 107
		f 4 -107 103 146 -106
		mu 0 4 87 86 107 108
		f 4 -109 105 148 -108
		mu 0 4 88 87 108 109
		f 4 -111 107 150 -110
		mu 0 4 89 88 109 110
		f 4 -113 109 152 -112
		mu 0 4 90 89 110 111
		f 4 -115 111 154 -114
		mu 0 4 91 90 111 112
		f 4 -117 113 156 -116
		mu 0 4 92 91 112 113
		f 4 -119 115 158 -118
		mu 0 4 93 92 113 114
		f 4 -121 117 160 -120
		mu 0 4 94 93 114 115
		f 4 -123 119 162 -122
		mu 0 4 96 94 115 117
		f 4 -125 121 164 -124
		mu 0 4 97 95 116 118
		f 4 -127 123 166 -126
		mu 0 4 98 97 118 119
		f 4 -129 125 168 -128
		mu 0 4 99 98 119 120
		f 4 -131 127 170 -130
		mu 0 4 100 99 120 121
		f 4 -133 129 172 -132
		mu 0 4 101 100 121 122
		f 4 -135 131 174 -134
		mu 0 4 102 101 122 123
		f 4 -137 133 176 -136
		mu 0 4 103 102 123 124
		f 4 -139 135 178 -138
		mu 0 4 104 103 124 125
		f 4 -140 137 179 -101
		mu 0 4 84 104 125 105
		f 4 -143 140 -31 -142
		mu 0 4 106 105 52 51
		f 4 -145 141 -30 -144
		mu 0 4 107 106 51 50
		f 4 -147 143 -29 -146
		mu 0 4 108 107 50 49
		f 4 -149 145 -28 -148
		mu 0 4 109 108 49 48
		f 4 -151 147 -27 -150
		mu 0 4 110 109 48 47
		f 4 -153 149 -26 -152
		mu 0 4 111 110 47 46
		f 4 -155 151 -25 -154
		mu 0 4 112 111 46 45
		f 4 -157 153 -24 -156
		mu 0 4 113 112 45 44
		f 4 -159 155 -23 -158
		mu 0 4 114 113 44 43
		f 4 -161 157 -22 -160
		mu 0 4 115 114 43 42
		f 4 -163 159 -21 -162
		mu 0 4 117 115 42 41
		f 4 -165 161 -40 -164
		mu 0 4 118 116 61 60
		f 4 -167 163 -39 -166
		mu 0 4 119 118 60 59
		f 4 -169 165 -38 -168
		mu 0 4 120 119 59 58
		f 4 -171 167 -37 -170
		mu 0 4 121 120 58 57
		f 4 -173 169 -36 -172
		mu 0 4 122 121 57 56
		f 4 -175 171 -35 -174
		mu 0 4 123 122 56 55
		f 4 -177 173 -34 -176
		mu 0 4 124 123 55 54
		f 4 -179 175 -33 -178
		mu 0 4 125 124 54 53
		f 4 -180 177 -32 -141
		mu 0 4 105 125 53 52;
	setAttr ".cd" -type "dataPolyComponent" Index_Data Edge 0 ;
	setAttr ".cvd" -type "dataPolyComponent" Index_Data Vertex 0 ;
	setAttr ".pd[0]" -type "dataPolyComponent" Index_Data UV 0 ;
	setAttr ".hfd" -type "dataPolyComponent" Index_Data Face 0 ;
	setAttr ".ai_translator" -type "string" "polymesh";
createNode transform -n "pPlatonic2";
	rename -uid "F7B44B8A-49C2-B99E-D8B9-1284E92C81DD";
	setAttr ".t" -type "double3" -1.748320238056424 10.822452199343125 2.6794083395892425 ;
	setAttr ".r" -type "double3" 0 0 26.565423970382742 ;
	setAttr ".s" -type "double3" 0.53922899474019181 0.53922899474019181 0.53922899474019181 ;
createNode mesh -n "pPlatonicShape2" -p "pPlatonic2";
	rename -uid "C1079904-4445-0BD3-7E03-57B1AA4B9147";
	setAttr -k off ".v";
	setAttr ".vir" yes;
	setAttr ".vif" yes;
	setAttr ".uvst[0].uvsn" -type "string" "map1";
	setAttr ".cuvs" -type "string" "map1";
	setAttr ".dcc" -type "string" "Ambient+Diffuse";
	setAttr ".covm[0]"  0 1 1;
	setAttr ".cdvm[0]"  0 1 1;
	setAttr ".ai_translator" -type "string" "polymesh";
createNode lightLinker -s -n "lightLinker1";
	rename -uid "95E3AD53-4C32-40F2-A2C8-18B01D2B0546";
	setAttr -s 2 ".lnk";
	setAttr -s 2 ".slnk";
createNode shapeEditorManager -n "shapeEditorManager";
	rename -uid "1F883A4B-4D5F-02E7-5B8F-22823FF5CBC8";
createNode poseInterpolatorManager -n "poseInterpolatorManager";
	rename -uid "D504914B-443A-16DE-E87B-7A846E989EB3";
createNode displayLayerManager -n "layerManager";
	rename -uid "E2F1B5D1-4C9C-2A2E-08DA-0FBC3E43F426";
createNode displayLayer -n "defaultLayer";
	rename -uid "74DC4E4E-4729-D7D7-05B9-A19CA32C1F1D";
createNode renderLayerManager -n "renderLayerManager";
	rename -uid "C87B5EF7-4C34-59ED-5398-C9A406653980";
createNode renderLayer -n "defaultRenderLayer";
	rename -uid "0705A999-446F-8339-E38D-BDA236EE5FE6";
	setAttr ".g" yes;
createNode polyCylinder -n "polyCylinder2";
	rename -uid "45C59505-4C22-33AC-284E-248AA70B83B4";
	setAttr ".sc" 1;
	setAttr ".cuv" 3;
createNode polySplitRing -n "polySplitRing1";
	rename -uid "3D98626C-493A-0EBE-6CA1-1BBC144CA858";
	setAttr ".uopa" yes;
	setAttr ".ics" -type "componentList" 1 "e[40:59]";
	setAttr ".ix" -type "matrix" 0.70821065622685342 0 0 0 0 7.7099054916157801 0 0 0 0 0.70821065622685342 0
		 0 7.4214662122395882 0 1;
	setAttr ".wt" 0.69650131464004517;
	setAttr ".dr" no;
	setAttr ".re" 51;
	setAttr ".sma" 29.999999999999996;
	setAttr ".p[0]"  0 0 1;
	setAttr ".fq" yes;
createNode polySplitRing -n "polySplitRing2";
	rename -uid "916102C4-49E2-F2BF-D905-B19591CF445C";
	setAttr ".uopa" yes;
	setAttr ".ics" -type "componentList" 19 "e[100:101]" "e[103]" "e[105]" "e[107]" "e[109]" "e[111]" "e[113]" "e[115]" "e[117]" "e[119]" "e[121]" "e[123]" "e[125]" "e[127]" "e[129]" "e[131]" "e[133]" "e[135]" "e[137]";
	setAttr ".ix" -type "matrix" 0.27672931518947746 0 0 0 0 6.0055777723366592 0 0 0 0 0.27672931518947746 0
		 0 5.9073004925235075 0 1;
	setAttr ".wt" 0.55928963422775269;
	setAttr ".dr" no;
	setAttr ".re" 100;
	setAttr ".sma" 29.999999999999996;
	setAttr ".p[0]"  0 0 1;
	setAttr ".fq" yes;
createNode polySplitRing -n "polySplitRing3";
	rename -uid "23BD4B06-46FE-F288-EA08-7191F2E66C0A";
	setAttr ".uopa" yes;
	setAttr ".ics" -type "componentList" 1 "e[40:59]";
	setAttr ".ix" -type "matrix" 0.27672931518947746 0 0 0 0 6.0055777723366592 0 0 0 0 0.27672931518947746 0
		 0 5.9073004925235075 0 1;
	setAttr ".wt" 0.53478515148162842;
	setAttr ".dr" no;
	setAttr ".re" 48;
	setAttr ".sma" 29.999999999999996;
	setAttr ".p[0]"  0 0 1;
	setAttr ".fq" yes;
createNode polyTweak -n "polyTweak1";
	rename -uid "3BA2C66D-4D39-72CE-3231-C9931DDC715C";
	setAttr ".uopa" yes;
	setAttr -s 60 ".tk";
	setAttr ".tk[20]" -type "float3" -0.80864239 -0.014631495 0.25992668 ;
	setAttr ".tk[21]" -type "float3" -0.68787241 -0.012446297 0.49440998 ;
	setAttr ".tk[22]" -type "float3" -0.49976808 -0.0090427632 0.68049675 ;
	setAttr ".tk[23]" -type "float3" -0.26274383 -0.0047540613 0.79997241 ;
	setAttr ".tk[24]" -type "float3" -7.5249964e-08 -1.8676971e-09 0.84114081 ;
	setAttr ".tk[25]" -type "float3" 0.26274371 0.0047540576 0.79997236 ;
	setAttr ".tk[26]" -type "float3" 0.49976799 0.0090427585 0.68049657 ;
	setAttr ".tk[27]" -type "float3" 0.68787193 0.012446287 0.4944098 ;
	setAttr ".tk[28]" -type "float3" 0.80864191 0.014631491 0.25992656 ;
	setAttr ".tk[29]" -type "float3" 0.85025597 0.015384456 -1.5040774e-07 ;
	setAttr ".tk[30]" -type "float3" 0.80864191 0.014631491 -0.25992692 ;
	setAttr ".tk[31]" -type "float3" 0.68787181 0.012446286 -0.4944101 ;
	setAttr ".tk[32]" -type "float3" 0.49976793 0.0090427566 -0.68049675 ;
	setAttr ".tk[33]" -type "float3" 0.26274362 0.0047540567 -0.79997241 ;
	setAttr ".tk[34]" -type "float3" -5.017052e-08 -1.4007726e-09 -0.84114081 ;
	setAttr ".tk[35]" -type "float3" -0.26274371 -0.0047540581 -0.79997236 ;
	setAttr ".tk[36]" -type "float3" -0.49976793 -0.0090427585 -0.68049669 ;
	setAttr ".tk[37]" -type "float3" -0.68787181 -0.012446289 -0.49441004 ;
	setAttr ".tk[38]" -type "float3" -0.80864179 -0.014631489 -0.25992686 ;
	setAttr ".tk[39]" -type "float3" -0.85025591 -0.015384455 -1.5040774e-07 ;
	setAttr ".tk[42]" -type "float3" -6.6873789 0 5.6875968 ;
	setAttr ".tk[43]" -type "float3" -6.6873789 0 5.6875968 ;
	setAttr ".tk[44]" -type "float3" -6.6873789 0 5.6875968 ;
	setAttr ".tk[45]" -type "float3" -6.6873789 0 5.6875968 ;
	setAttr ".tk[46]" -type "float3" -6.6873789 0 5.6875968 ;
	setAttr ".tk[47]" -type "float3" -6.6873789 0 5.6875968 ;
	setAttr ".tk[48]" -type "float3" -6.6873789 0 5.6875968 ;
	setAttr ".tk[49]" -type "float3" -6.6873789 0 5.6875968 ;
	setAttr ".tk[50]" -type "float3" -6.6873789 0 5.6875968 ;
	setAttr ".tk[51]" -type "float3" -6.6873789 0 5.6875968 ;
	setAttr ".tk[52]" -type "float3" -6.6873789 0 5.6875968 ;
	setAttr ".tk[53]" -type "float3" -6.6873789 0 5.6875968 ;
	setAttr ".tk[54]" -type "float3" -6.6873789 0 5.6875968 ;
	setAttr ".tk[55]" -type "float3" -6.6873789 0 5.6875968 ;
	setAttr ".tk[56]" -type "float3" -6.6873789 0 5.6875968 ;
	setAttr ".tk[57]" -type "float3" -6.6873789 0 5.6875968 ;
	setAttr ".tk[58]" -type "float3" -6.6873789 0 5.6875968 ;
	setAttr ".tk[59]" -type "float3" -6.6873789 0 5.6875968 ;
	setAttr ".tk[60]" -type "float3" -6.6873789 0 5.6875968 ;
	setAttr ".tk[61]" -type "float3" -6.6873789 0 5.6875968 ;
	setAttr ".tk[62]" -type "float3" -4.7207918 -0.0038854673 0.23476367 ;
	setAttr ".tk[63]" -type "float3" -4.6715336 -0.0037049127 0.30881315 ;
	setAttr ".tk[64]" -type "float3" -4.6477585 -0.0031617023 0.39462271 ;
	setAttr ".tk[65]" -type "float3" -4.6517868 -0.0023090001 0.48379344 ;
	setAttr ".tk[66]" -type "float3" -4.683228 -0.0012302772 0.56759602 ;
	setAttr ".tk[67]" -type "float3" -4.7390013 -3.1115924e-05 0.63782746 ;
	setAttr ".tk[68]" -type "float3" -4.8136539 0.0011710714 0.68761373 ;
	setAttr ".tk[69]" -type "float3" -4.899869 0.0022586375 0.71207982 ;
	setAttr ".tk[70]" -type "float3" -4.9892139 0.0031251139 0.70883214 ;
	setAttr ".tk[71]" -type "float3" -5.0729408 0.0036856832 0.67818838 ;
	setAttr ".tk[72]" -type "float3" -5.1428528 0.0038854729 0.62314773 ;
	setAttr ".tk[73]" -type "float3" -5.1921115 0.0037049181 0.54909831 ;
	setAttr ".tk[74]" -type "float3" -5.2158861 0.0031617004 0.4632884 ;
	setAttr ".tk[75]" -type "float3" -5.2118578 0.0023089992 0.3741177 ;
	setAttr ".tk[76]" -type "float3" -5.1804166 0.0012302765 0.29031518 ;
	setAttr ".tk[77]" -type "float3" -5.1246438 3.1121861e-05 0.2200838 ;
	setAttr ".tk[78]" -type "float3" -5.0499911 -0.0011710788 0.17029777 ;
	setAttr ".tk[79]" -type "float3" -4.9637761 -0.0022586349 0.14583172 ;
	setAttr ".tk[80]" -type "float3" -4.8744311 -0.0031251132 0.14907907 ;
	setAttr ".tk[81]" -type "float3" -4.7907047 -0.0036856809 0.17972299 ;
createNode polyPlatonic -n "polyPlatonic1";
	rename -uid "08D10F84-4BDB-902A-E02B-8795D9FECD6C";
createNode polyPlatonic -n "polyPlatonic2";
	rename -uid "3E1F0901-413B-FD6B-479D-1FA6C7BE93C6";
createNode script -n "uiConfigurationScriptNode";
	rename -uid "D1A6FF91-459B-5D78-148B-589146445D3F";
	setAttr ".b" -type "string" (
		"// Maya Mel UI Configuration File.\n//\n//  This script is machine generated.  Edit at your own risk.\n//\n//\n\nglobal string $gMainPane;\nif (`paneLayout -exists $gMainPane`) {\n\n\tglobal int $gUseScenePanelConfig;\n\tint    $useSceneConfig = $gUseScenePanelConfig;\n\tint    $nodeEditorPanelVisible = stringArrayContains(\"nodeEditorPanel1\", `getPanel -vis`);\n\tint    $nodeEditorWorkspaceControlOpen = (`workspaceControl -exists nodeEditorPanel1Window` && `workspaceControl -q -visible nodeEditorPanel1Window`);\n\tint    $menusOkayInPanels = `optionVar -q allowMenusInPanels`;\n\tint    $nVisPanes = `paneLayout -q -nvp $gMainPane`;\n\tint    $nPanes = 0;\n\tstring $editorName;\n\tstring $panelName;\n\tstring $itemFilterName;\n\tstring $panelConfig;\n\n\t//\n\t//  get current state of the UI\n\t//\n\tsceneUIReplacement -update $gMainPane;\n\n\t$panelName = `sceneUIReplacement -getNextPanel \"modelPanel\" (localizedPanelLabel(\"Top View\")) `;\n\tif (\"\" != $panelName) {\n\t\t$label = `panel -q -label $panelName`;\n\t\tmodelPanel -edit -l (localizedPanelLabel(\"Top View\")) -mbv $menusOkayInPanels  $panelName;\n"
		+ "\t\t$editorName = $panelName;\n        modelEditor -e \n            -camera \"top\" \n            -useInteractiveMode 0\n            -displayLights \"default\" \n            -displayAppearance \"smoothShaded\" \n            -activeOnly 0\n            -ignorePanZoom 0\n            -wireframeOnShaded 0\n            -headsUpDisplay 1\n            -holdOuts 1\n            -selectionHiliteDisplay 1\n            -useDefaultMaterial 0\n            -bufferMode \"double\" \n            -twoSidedLighting 0\n            -backfaceCulling 0\n            -xray 0\n            -jointXray 0\n            -activeComponentsXray 0\n            -displayTextures 0\n            -smoothWireframe 0\n            -lineWidth 1\n            -textureAnisotropic 0\n            -textureHilight 1\n            -textureSampling 2\n            -textureDisplay \"modulate\" \n            -textureMaxSize 32768\n            -fogging 0\n            -fogSource \"fragment\" \n            -fogMode \"linear\" \n            -fogStart 0\n            -fogEnd 100\n            -fogDensity 0.1\n            -fogColor 0.5 0.5 0.5 1 \n"
		+ "            -depthOfFieldPreview 1\n            -maxConstantTransparency 1\n            -rendererName \"vp2Renderer\" \n            -objectFilterShowInHUD 1\n            -isFiltered 0\n            -colorResolution 256 256 \n            -bumpResolution 512 512 \n            -textureCompression 0\n            -transparencyAlgorithm \"frontAndBackCull\" \n            -transpInShadows 0\n            -cullingOverride \"none\" \n            -lowQualityLighting 0\n            -maximumNumHardwareLights 1\n            -occlusionCulling 0\n            -shadingModel 0\n            -useBaseRenderer 0\n            -useReducedRenderer 0\n            -smallObjectCulling 0\n            -smallObjectThreshold -1 \n            -interactiveDisableShadows 0\n            -interactiveBackFaceCull 0\n            -sortTransparent 1\n            -controllers 1\n            -nurbsCurves 1\n            -nurbsSurfaces 1\n            -polymeshes 1\n            -subdivSurfaces 1\n            -planes 1\n            -lights 1\n            -cameras 1\n            -controlVertices 1\n"
		+ "            -hulls 1\n            -grid 1\n            -imagePlane 1\n            -joints 1\n            -ikHandles 1\n            -deformers 1\n            -dynamics 1\n            -particleInstancers 1\n            -fluids 1\n            -hairSystems 1\n            -follicles 1\n            -nCloths 1\n            -nParticles 1\n            -nRigids 1\n            -dynamicConstraints 1\n            -locators 1\n            -manipulators 1\n            -pluginShapes 1\n            -dimensions 1\n            -handles 1\n            -pivots 1\n            -textures 1\n            -strokes 1\n            -motionTrails 1\n            -clipGhosts 1\n            -greasePencils 1\n            -shadows 0\n            -captureSequenceNumber -1\n            -width 1\n            -height 1\n            -sceneRenderFilter 0\n            $editorName;\n        modelEditor -e -viewSelected 0 $editorName;\n        modelEditor -e \n            -pluginObjects \"gpuCacheDisplayFilter\" 1 \n            $editorName;\n\t\tif (!$useSceneConfig) {\n\t\t\tpanel -e -l $label $panelName;\n"
		+ "\t\t}\n\t}\n\n\n\t$panelName = `sceneUIReplacement -getNextPanel \"modelPanel\" (localizedPanelLabel(\"Side View\")) `;\n\tif (\"\" != $panelName) {\n\t\t$label = `panel -q -label $panelName`;\n\t\tmodelPanel -edit -l (localizedPanelLabel(\"Side View\")) -mbv $menusOkayInPanels  $panelName;\n\t\t$editorName = $panelName;\n        modelEditor -e \n            -camera \"side\" \n            -useInteractiveMode 0\n            -displayLights \"default\" \n            -displayAppearance \"smoothShaded\" \n            -activeOnly 0\n            -ignorePanZoom 0\n            -wireframeOnShaded 0\n            -headsUpDisplay 1\n            -holdOuts 1\n            -selectionHiliteDisplay 1\n            -useDefaultMaterial 0\n            -bufferMode \"double\" \n            -twoSidedLighting 0\n            -backfaceCulling 0\n            -xray 0\n            -jointXray 0\n            -activeComponentsXray 0\n            -displayTextures 0\n            -smoothWireframe 0\n            -lineWidth 1\n            -textureAnisotropic 0\n            -textureHilight 1\n            -textureSampling 2\n"
		+ "            -textureDisplay \"modulate\" \n            -textureMaxSize 32768\n            -fogging 0\n            -fogSource \"fragment\" \n            -fogMode \"linear\" \n            -fogStart 0\n            -fogEnd 100\n            -fogDensity 0.1\n            -fogColor 0.5 0.5 0.5 1 \n            -depthOfFieldPreview 1\n            -maxConstantTransparency 1\n            -rendererName \"vp2Renderer\" \n            -objectFilterShowInHUD 1\n            -isFiltered 0\n            -colorResolution 256 256 \n            -bumpResolution 512 512 \n            -textureCompression 0\n            -transparencyAlgorithm \"frontAndBackCull\" \n            -transpInShadows 0\n            -cullingOverride \"none\" \n            -lowQualityLighting 0\n            -maximumNumHardwareLights 1\n            -occlusionCulling 0\n            -shadingModel 0\n            -useBaseRenderer 0\n            -useReducedRenderer 0\n            -smallObjectCulling 0\n            -smallObjectThreshold -1 \n            -interactiveDisableShadows 0\n            -interactiveBackFaceCull 0\n"
		+ "            -sortTransparent 1\n            -controllers 1\n            -nurbsCurves 1\n            -nurbsSurfaces 1\n            -polymeshes 1\n            -subdivSurfaces 1\n            -planes 1\n            -lights 1\n            -cameras 1\n            -controlVertices 1\n            -hulls 1\n            -grid 1\n            -imagePlane 1\n            -joints 1\n            -ikHandles 1\n            -deformers 1\n            -dynamics 1\n            -particleInstancers 1\n            -fluids 1\n            -hairSystems 1\n            -follicles 1\n            -nCloths 1\n            -nParticles 1\n            -nRigids 1\n            -dynamicConstraints 1\n            -locators 1\n            -manipulators 1\n            -pluginShapes 1\n            -dimensions 1\n            -handles 1\n            -pivots 1\n            -textures 1\n            -strokes 1\n            -motionTrails 1\n            -clipGhosts 1\n            -greasePencils 1\n            -shadows 0\n            -captureSequenceNumber -1\n            -width 1\n            -height 1\n"
		+ "            -sceneRenderFilter 0\n            $editorName;\n        modelEditor -e -viewSelected 0 $editorName;\n        modelEditor -e \n            -pluginObjects \"gpuCacheDisplayFilter\" 1 \n            $editorName;\n\t\tif (!$useSceneConfig) {\n\t\t\tpanel -e -l $label $panelName;\n\t\t}\n\t}\n\n\n\t$panelName = `sceneUIReplacement -getNextPanel \"modelPanel\" (localizedPanelLabel(\"Front View\")) `;\n\tif (\"\" != $panelName) {\n\t\t$label = `panel -q -label $panelName`;\n\t\tmodelPanel -edit -l (localizedPanelLabel(\"Front View\")) -mbv $menusOkayInPanels  $panelName;\n\t\t$editorName = $panelName;\n        modelEditor -e \n            -camera \"front\" \n            -useInteractiveMode 0\n            -displayLights \"default\" \n            -displayAppearance \"smoothShaded\" \n            -activeOnly 0\n            -ignorePanZoom 0\n            -wireframeOnShaded 0\n            -headsUpDisplay 1\n            -holdOuts 1\n            -selectionHiliteDisplay 1\n            -useDefaultMaterial 0\n            -bufferMode \"double\" \n            -twoSidedLighting 0\n            -backfaceCulling 0\n"
		+ "            -xray 0\n            -jointXray 0\n            -activeComponentsXray 0\n            -displayTextures 0\n            -smoothWireframe 0\n            -lineWidth 1\n            -textureAnisotropic 0\n            -textureHilight 1\n            -textureSampling 2\n            -textureDisplay \"modulate\" \n            -textureMaxSize 32768\n            -fogging 0\n            -fogSource \"fragment\" \n            -fogMode \"linear\" \n            -fogStart 0\n            -fogEnd 100\n            -fogDensity 0.1\n            -fogColor 0.5 0.5 0.5 1 \n            -depthOfFieldPreview 1\n            -maxConstantTransparency 1\n            -rendererName \"vp2Renderer\" \n            -objectFilterShowInHUD 1\n            -isFiltered 0\n            -colorResolution 256 256 \n            -bumpResolution 512 512 \n            -textureCompression 0\n            -transparencyAlgorithm \"frontAndBackCull\" \n            -transpInShadows 0\n            -cullingOverride \"none\" \n            -lowQualityLighting 0\n            -maximumNumHardwareLights 1\n            -occlusionCulling 0\n"
		+ "            -shadingModel 0\n            -useBaseRenderer 0\n            -useReducedRenderer 0\n            -smallObjectCulling 0\n            -smallObjectThreshold -1 \n            -interactiveDisableShadows 0\n            -interactiveBackFaceCull 0\n            -sortTransparent 1\n            -controllers 1\n            -nurbsCurves 1\n            -nurbsSurfaces 1\n            -polymeshes 1\n            -subdivSurfaces 1\n            -planes 1\n            -lights 1\n            -cameras 1\n            -controlVertices 1\n            -hulls 1\n            -grid 1\n            -imagePlane 1\n            -joints 1\n            -ikHandles 1\n            -deformers 1\n            -dynamics 1\n            -particleInstancers 1\n            -fluids 1\n            -hairSystems 1\n            -follicles 1\n            -nCloths 1\n            -nParticles 1\n            -nRigids 1\n            -dynamicConstraints 1\n            -locators 1\n            -manipulators 1\n            -pluginShapes 1\n            -dimensions 1\n            -handles 1\n            -pivots 1\n"
		+ "            -textures 1\n            -strokes 1\n            -motionTrails 1\n            -clipGhosts 1\n            -greasePencils 1\n            -shadows 0\n            -captureSequenceNumber -1\n            -width 1\n            -height 1\n            -sceneRenderFilter 0\n            $editorName;\n        modelEditor -e -viewSelected 0 $editorName;\n        modelEditor -e \n            -pluginObjects \"gpuCacheDisplayFilter\" 1 \n            $editorName;\n\t\tif (!$useSceneConfig) {\n\t\t\tpanel -e -l $label $panelName;\n\t\t}\n\t}\n\n\n\t$panelName = `sceneUIReplacement -getNextPanel \"modelPanel\" (localizedPanelLabel(\"Persp View\")) `;\n\tif (\"\" != $panelName) {\n\t\t$label = `panel -q -label $panelName`;\n\t\tmodelPanel -edit -l (localizedPanelLabel(\"Persp View\")) -mbv $menusOkayInPanels  $panelName;\n\t\t$editorName = $panelName;\n        modelEditor -e \n            -camera \"persp\" \n            -useInteractiveMode 0\n            -displayLights \"default\" \n            -displayAppearance \"smoothShaded\" \n            -activeOnly 0\n            -ignorePanZoom 0\n"
		+ "            -wireframeOnShaded 0\n            -headsUpDisplay 1\n            -holdOuts 1\n            -selectionHiliteDisplay 1\n            -useDefaultMaterial 0\n            -bufferMode \"double\" \n            -twoSidedLighting 0\n            -backfaceCulling 0\n            -xray 0\n            -jointXray 0\n            -activeComponentsXray 0\n            -displayTextures 0\n            -smoothWireframe 0\n            -lineWidth 1\n            -textureAnisotropic 0\n            -textureHilight 1\n            -textureSampling 2\n            -textureDisplay \"modulate\" \n            -textureMaxSize 32768\n            -fogging 0\n            -fogSource \"fragment\" \n            -fogMode \"linear\" \n            -fogStart 0\n            -fogEnd 100\n            -fogDensity 0.1\n            -fogColor 0.5 0.5 0.5 1 \n            -depthOfFieldPreview 1\n            -maxConstantTransparency 1\n            -rendererName \"vp2Renderer\" \n            -objectFilterShowInHUD 1\n            -isFiltered 0\n            -colorResolution 256 256 \n            -bumpResolution 512 512 \n"
		+ "            -textureCompression 0\n            -transparencyAlgorithm \"frontAndBackCull\" \n            -transpInShadows 0\n            -cullingOverride \"none\" \n            -lowQualityLighting 0\n            -maximumNumHardwareLights 1\n            -occlusionCulling 0\n            -shadingModel 0\n            -useBaseRenderer 0\n            -useReducedRenderer 0\n            -smallObjectCulling 0\n            -smallObjectThreshold -1 \n            -interactiveDisableShadows 0\n            -interactiveBackFaceCull 0\n            -sortTransparent 1\n            -controllers 1\n            -nurbsCurves 1\n            -nurbsSurfaces 1\n            -polymeshes 1\n            -subdivSurfaces 1\n            -planes 1\n            -lights 1\n            -cameras 1\n            -controlVertices 1\n            -hulls 1\n            -grid 1\n            -imagePlane 1\n            -joints 1\n            -ikHandles 1\n            -deformers 1\n            -dynamics 1\n            -particleInstancers 1\n            -fluids 1\n            -hairSystems 1\n            -follicles 1\n"
		+ "            -nCloths 1\n            -nParticles 1\n            -nRigids 1\n            -dynamicConstraints 1\n            -locators 1\n            -manipulators 1\n            -pluginShapes 1\n            -dimensions 1\n            -handles 1\n            -pivots 1\n            -textures 1\n            -strokes 1\n            -motionTrails 1\n            -clipGhosts 1\n            -greasePencils 1\n            -shadows 0\n            -captureSequenceNumber -1\n            -width 1581\n            -height 702\n            -sceneRenderFilter 0\n            $editorName;\n        modelEditor -e -viewSelected 0 $editorName;\n        modelEditor -e \n            -pluginObjects \"gpuCacheDisplayFilter\" 1 \n            $editorName;\n\t\tif (!$useSceneConfig) {\n\t\t\tpanel -e -l $label $panelName;\n\t\t}\n\t}\n\n\n\t$panelName = `sceneUIReplacement -getNextPanel \"outlinerPanel\" (localizedPanelLabel(\"ToggledOutliner\")) `;\n\tif (\"\" != $panelName) {\n\t\t$label = `panel -q -label $panelName`;\n\t\toutlinerPanel -edit -l (localizedPanelLabel(\"ToggledOutliner\")) -mbv $menusOkayInPanels  $panelName;\n"
		+ "\t\t$editorName = $panelName;\n        outlinerEditor -e \n            -showShapes 0\n            -showAssignedMaterials 0\n            -showTimeEditor 1\n            -showReferenceNodes 1\n            -showReferenceMembers 1\n            -showAttributes 0\n            -showConnected 0\n            -showAnimCurvesOnly 0\n            -showMuteInfo 0\n            -organizeByLayer 1\n            -organizeByClip 1\n            -showAnimLayerWeight 1\n            -autoExpandLayers 1\n            -autoExpand 0\n            -showDagOnly 1\n            -showAssets 1\n            -showContainedOnly 1\n            -showPublishedAsConnected 0\n            -showParentContainers 0\n            -showContainerContents 1\n            -ignoreDagHierarchy 0\n            -expandConnections 0\n            -showUpstreamCurves 1\n            -showUnitlessCurves 1\n            -showCompounds 1\n            -showLeafs 1\n            -showNumericAttrsOnly 0\n            -highlightActive 1\n            -autoSelectNewObjects 0\n            -doNotSelectNewObjects 0\n            -dropIsParent 1\n"
		+ "            -transmitFilters 0\n            -setFilter \"defaultSetFilter\" \n            -showSetMembers 1\n            -allowMultiSelection 1\n            -alwaysToggleSelect 0\n            -directSelect 0\n            -isSet 0\n            -isSetMember 0\n            -displayMode \"DAG\" \n            -expandObjects 0\n            -setsIgnoreFilters 1\n            -containersIgnoreFilters 0\n            -editAttrName 0\n            -showAttrValues 0\n            -highlightSecondary 0\n            -showUVAttrsOnly 0\n            -showTextureNodesOnly 0\n            -attrAlphaOrder \"default\" \n            -animLayerFilterOptions \"allAffecting\" \n            -sortOrder \"none\" \n            -longNames 0\n            -niceNames 1\n            -showNamespace 1\n            -showPinIcons 0\n            -mapMotionTrails 0\n            -ignoreHiddenAttribute 0\n            -ignoreOutlinerColor 0\n            -renderFilterVisible 0\n            -renderFilterIndex 0\n            -selectionOrder \"chronological\" \n            -expandAttribute 0\n            $editorName;\n"
		+ "\t\tif (!$useSceneConfig) {\n\t\t\tpanel -e -l $label $panelName;\n\t\t}\n\t}\n\n\n\t$panelName = `sceneUIReplacement -getNextPanel \"outlinerPanel\" (localizedPanelLabel(\"Outliner\")) `;\n\tif (\"\" != $panelName) {\n\t\t$label = `panel -q -label $panelName`;\n\t\toutlinerPanel -edit -l (localizedPanelLabel(\"Outliner\")) -mbv $menusOkayInPanels  $panelName;\n\t\t$editorName = $panelName;\n        outlinerEditor -e \n            -showShapes 0\n            -showAssignedMaterials 0\n            -showTimeEditor 1\n            -showReferenceNodes 0\n            -showReferenceMembers 0\n            -showAttributes 0\n            -showConnected 0\n            -showAnimCurvesOnly 0\n            -showMuteInfo 0\n            -organizeByLayer 1\n            -organizeByClip 1\n            -showAnimLayerWeight 1\n            -autoExpandLayers 1\n            -autoExpand 0\n            -showDagOnly 1\n            -showAssets 1\n            -showContainedOnly 1\n            -showPublishedAsConnected 0\n            -showParentContainers 0\n            -showContainerContents 1\n            -ignoreDagHierarchy 0\n"
		+ "            -expandConnections 0\n            -showUpstreamCurves 1\n            -showUnitlessCurves 1\n            -showCompounds 1\n            -showLeafs 1\n            -showNumericAttrsOnly 0\n            -highlightActive 1\n            -autoSelectNewObjects 0\n            -doNotSelectNewObjects 0\n            -dropIsParent 1\n            -transmitFilters 0\n            -setFilter \"defaultSetFilter\" \n            -showSetMembers 1\n            -allowMultiSelection 1\n            -alwaysToggleSelect 0\n            -directSelect 0\n            -displayMode \"DAG\" \n            -expandObjects 0\n            -setsIgnoreFilters 1\n            -containersIgnoreFilters 0\n            -editAttrName 0\n            -showAttrValues 0\n            -highlightSecondary 0\n            -showUVAttrsOnly 0\n            -showTextureNodesOnly 0\n            -attrAlphaOrder \"default\" \n            -animLayerFilterOptions \"allAffecting\" \n            -sortOrder \"none\" \n            -longNames 0\n            -niceNames 1\n            -showNamespace 1\n            -showPinIcons 0\n"
		+ "            -mapMotionTrails 0\n            -ignoreHiddenAttribute 0\n            -ignoreOutlinerColor 0\n            -renderFilterVisible 0\n            $editorName;\n\t\tif (!$useSceneConfig) {\n\t\t\tpanel -e -l $label $panelName;\n\t\t}\n\t}\n\n\n\t$panelName = `sceneUIReplacement -getNextScriptedPanel \"graphEditor\" (localizedPanelLabel(\"Graph Editor\")) `;\n\tif (\"\" != $panelName) {\n\t\t$label = `panel -q -label $panelName`;\n\t\tscriptedPanel -edit -l (localizedPanelLabel(\"Graph Editor\")) -mbv $menusOkayInPanels  $panelName;\n\n\t\t\t$editorName = ($panelName+\"OutlineEd\");\n            outlinerEditor -e \n                -showShapes 1\n                -showAssignedMaterials 0\n                -showTimeEditor 1\n                -showReferenceNodes 0\n                -showReferenceMembers 0\n                -showAttributes 1\n                -showConnected 1\n                -showAnimCurvesOnly 1\n                -showMuteInfo 0\n                -organizeByLayer 1\n                -organizeByClip 1\n                -showAnimLayerWeight 1\n                -autoExpandLayers 1\n"
		+ "                -autoExpand 1\n                -showDagOnly 0\n                -showAssets 1\n                -showContainedOnly 0\n                -showPublishedAsConnected 0\n                -showParentContainers 1\n                -showContainerContents 0\n                -ignoreDagHierarchy 0\n                -expandConnections 1\n                -showUpstreamCurves 1\n                -showUnitlessCurves 1\n                -showCompounds 0\n                -showLeafs 1\n                -showNumericAttrsOnly 1\n                -highlightActive 0\n                -autoSelectNewObjects 1\n                -doNotSelectNewObjects 0\n                -dropIsParent 1\n                -transmitFilters 1\n                -setFilter \"0\" \n                -showSetMembers 0\n                -allowMultiSelection 1\n                -alwaysToggleSelect 0\n                -directSelect 0\n                -displayMode \"DAG\" \n                -expandObjects 0\n                -setsIgnoreFilters 1\n                -containersIgnoreFilters 0\n                -editAttrName 0\n"
		+ "                -showAttrValues 0\n                -highlightSecondary 0\n                -showUVAttrsOnly 0\n                -showTextureNodesOnly 0\n                -attrAlphaOrder \"default\" \n                -animLayerFilterOptions \"allAffecting\" \n                -sortOrder \"none\" \n                -longNames 0\n                -niceNames 1\n                -showNamespace 1\n                -showPinIcons 1\n                -mapMotionTrails 1\n                -ignoreHiddenAttribute 0\n                -ignoreOutlinerColor 0\n                -renderFilterVisible 0\n                $editorName;\n\n\t\t\t$editorName = ($panelName+\"GraphEd\");\n            animCurveEditor -e \n                -displayKeys 1\n                -displayTangents 0\n                -displayActiveKeys 0\n                -displayActiveKeyTangents 1\n                -displayInfinities 0\n                -displayValues 0\n                -autoFit 1\n                -autoFitTime 0\n                -snapTime \"integer\" \n                -snapValue \"none\" \n                -showResults \"off\" \n"
		+ "                -showBufferCurves \"off\" \n                -smoothness \"fine\" \n                -resultSamples 1\n                -resultScreenSamples 0\n                -resultUpdate \"delayed\" \n                -showUpstreamCurves 1\n                -showCurveNames 0\n                -showActiveCurveNames 0\n                -stackedCurves 0\n                -stackedCurvesMin -1\n                -stackedCurvesMax 1\n                -stackedCurvesSpace 0.2\n                -displayNormalized 0\n                -preSelectionHighlight 0\n                -constrainDrag 0\n                -classicMode 1\n                -valueLinesToggle 1\n                $editorName;\n\t\tif (!$useSceneConfig) {\n\t\t\tpanel -e -l $label $panelName;\n\t\t}\n\t}\n\n\n\t$panelName = `sceneUIReplacement -getNextScriptedPanel \"dopeSheetPanel\" (localizedPanelLabel(\"Dope Sheet\")) `;\n\tif (\"\" != $panelName) {\n\t\t$label = `panel -q -label $panelName`;\n\t\tscriptedPanel -edit -l (localizedPanelLabel(\"Dope Sheet\")) -mbv $menusOkayInPanels  $panelName;\n\n\t\t\t$editorName = ($panelName+\"OutlineEd\");\n"
		+ "            outlinerEditor -e \n                -showShapes 1\n                -showAssignedMaterials 0\n                -showTimeEditor 1\n                -showReferenceNodes 0\n                -showReferenceMembers 0\n                -showAttributes 1\n                -showConnected 1\n                -showAnimCurvesOnly 1\n                -showMuteInfo 0\n                -organizeByLayer 1\n                -organizeByClip 1\n                -showAnimLayerWeight 1\n                -autoExpandLayers 1\n                -autoExpand 0\n                -showDagOnly 0\n                -showAssets 1\n                -showContainedOnly 0\n                -showPublishedAsConnected 0\n                -showParentContainers 1\n                -showContainerContents 0\n                -ignoreDagHierarchy 0\n                -expandConnections 1\n                -showUpstreamCurves 1\n                -showUnitlessCurves 0\n                -showCompounds 1\n                -showLeafs 1\n                -showNumericAttrsOnly 1\n                -highlightActive 0\n"
		+ "                -autoSelectNewObjects 0\n                -doNotSelectNewObjects 1\n                -dropIsParent 1\n                -transmitFilters 0\n                -setFilter \"0\" \n                -showSetMembers 0\n                -allowMultiSelection 1\n                -alwaysToggleSelect 0\n                -directSelect 0\n                -displayMode \"DAG\" \n                -expandObjects 0\n                -setsIgnoreFilters 1\n                -containersIgnoreFilters 0\n                -editAttrName 0\n                -showAttrValues 0\n                -highlightSecondary 0\n                -showUVAttrsOnly 0\n                -showTextureNodesOnly 0\n                -attrAlphaOrder \"default\" \n                -animLayerFilterOptions \"allAffecting\" \n                -sortOrder \"none\" \n                -longNames 0\n                -niceNames 1\n                -showNamespace 1\n                -showPinIcons 0\n                -mapMotionTrails 1\n                -ignoreHiddenAttribute 0\n                -ignoreOutlinerColor 0\n                -renderFilterVisible 0\n"
		+ "                $editorName;\n\n\t\t\t$editorName = ($panelName+\"DopeSheetEd\");\n            dopeSheetEditor -e \n                -displayKeys 1\n                -displayTangents 0\n                -displayActiveKeys 0\n                -displayActiveKeyTangents 0\n                -displayInfinities 0\n                -displayValues 0\n                -autoFit 0\n                -autoFitTime 0\n                -snapTime \"integer\" \n                -snapValue \"none\" \n                -outliner \"dopeSheetPanel1OutlineEd\" \n                -showSummary 1\n                -showScene 0\n                -hierarchyBelow 0\n                -showTicks 1\n                -selectionWindow 0 0 0 0 \n                $editorName;\n\t\tif (!$useSceneConfig) {\n\t\t\tpanel -e -l $label $panelName;\n\t\t}\n\t}\n\n\n\t$panelName = `sceneUIReplacement -getNextScriptedPanel \"timeEditorPanel\" (localizedPanelLabel(\"Time Editor\")) `;\n\tif (\"\" != $panelName) {\n\t\t$label = `panel -q -label $panelName`;\n\t\tscriptedPanel -edit -l (localizedPanelLabel(\"Time Editor\")) -mbv $menusOkayInPanels  $panelName;\n"
		+ "\t\tif (!$useSceneConfig) {\n\t\t\tpanel -e -l $label $panelName;\n\t\t}\n\t}\n\n\n\t$panelName = `sceneUIReplacement -getNextScriptedPanel \"clipEditorPanel\" (localizedPanelLabel(\"Trax Editor\")) `;\n\tif (\"\" != $panelName) {\n\t\t$label = `panel -q -label $panelName`;\n\t\tscriptedPanel -edit -l (localizedPanelLabel(\"Trax Editor\")) -mbv $menusOkayInPanels  $panelName;\n\n\t\t\t$editorName = clipEditorNameFromPanel($panelName);\n            clipEditor -e \n                -displayKeys 0\n                -displayTangents 0\n                -displayActiveKeys 0\n                -displayActiveKeyTangents 0\n                -displayInfinities 0\n                -displayValues 0\n                -autoFit 0\n                -autoFitTime 0\n                -snapTime \"none\" \n                -snapValue \"none\" \n                -initialized 0\n                -manageSequencer 0 \n                $editorName;\n\t\tif (!$useSceneConfig) {\n\t\t\tpanel -e -l $label $panelName;\n\t\t}\n\t}\n\n\n\t$panelName = `sceneUIReplacement -getNextScriptedPanel \"sequenceEditorPanel\" (localizedPanelLabel(\"Camera Sequencer\")) `;\n"
		+ "\tif (\"\" != $panelName) {\n\t\t$label = `panel -q -label $panelName`;\n\t\tscriptedPanel -edit -l (localizedPanelLabel(\"Camera Sequencer\")) -mbv $menusOkayInPanels  $panelName;\n\n\t\t\t$editorName = sequenceEditorNameFromPanel($panelName);\n            clipEditor -e \n                -displayKeys 0\n                -displayTangents 0\n                -displayActiveKeys 0\n                -displayActiveKeyTangents 0\n                -displayInfinities 0\n                -displayValues 0\n                -autoFit 0\n                -autoFitTime 0\n                -snapTime \"none\" \n                -snapValue \"none\" \n                -initialized 0\n                -manageSequencer 1 \n                $editorName;\n\t\tif (!$useSceneConfig) {\n\t\t\tpanel -e -l $label $panelName;\n\t\t}\n\t}\n\n\n\t$panelName = `sceneUIReplacement -getNextScriptedPanel \"hyperGraphPanel\" (localizedPanelLabel(\"Hypergraph Hierarchy\")) `;\n\tif (\"\" != $panelName) {\n\t\t$label = `panel -q -label $panelName`;\n\t\tscriptedPanel -edit -l (localizedPanelLabel(\"Hypergraph Hierarchy\")) -mbv $menusOkayInPanels  $panelName;\n"
		+ "\n\t\t\t$editorName = ($panelName+\"HyperGraphEd\");\n            hyperGraph -e \n                -graphLayoutStyle \"hierarchicalLayout\" \n                -orientation \"horiz\" \n                -mergeConnections 0\n                -zoom 1\n                -animateTransition 0\n                -showRelationships 1\n                -showShapes 0\n                -showDeformers 0\n                -showExpressions 0\n                -showConstraints 0\n                -showConnectionFromSelected 0\n                -showConnectionToSelected 0\n                -showConstraintLabels 0\n                -showUnderworld 0\n                -showInvisible 0\n                -transitionFrames 1\n                -opaqueContainers 0\n                -freeform 0\n                -imagePosition 0 0 \n                -imageScale 1\n                -imageEnabled 0\n                -graphType \"DAG\" \n                -heatMapDisplay 0\n                -updateSelection 1\n                -updateNodeAdded 1\n                -useDrawOverrideColor 0\n                -limitGraphTraversal -1\n"
		+ "                -range 0 0 \n                -iconSize \"smallIcons\" \n                -showCachedConnections 0\n                $editorName;\n\t\tif (!$useSceneConfig) {\n\t\t\tpanel -e -l $label $panelName;\n\t\t}\n\t}\n\n\n\t$panelName = `sceneUIReplacement -getNextScriptedPanel \"hyperShadePanel\" (localizedPanelLabel(\"Hypershade\")) `;\n\tif (\"\" != $panelName) {\n\t\t$label = `panel -q -label $panelName`;\n\t\tscriptedPanel -edit -l (localizedPanelLabel(\"Hypershade\")) -mbv $menusOkayInPanels  $panelName;\n\t\tif (!$useSceneConfig) {\n\t\t\tpanel -e -l $label $panelName;\n\t\t}\n\t}\n\n\n\t$panelName = `sceneUIReplacement -getNextScriptedPanel \"visorPanel\" (localizedPanelLabel(\"Visor\")) `;\n\tif (\"\" != $panelName) {\n\t\t$label = `panel -q -label $panelName`;\n\t\tscriptedPanel -edit -l (localizedPanelLabel(\"Visor\")) -mbv $menusOkayInPanels  $panelName;\n\t\tif (!$useSceneConfig) {\n\t\t\tpanel -e -l $label $panelName;\n\t\t}\n\t}\n\n\n\t$panelName = `sceneUIReplacement -getNextScriptedPanel \"nodeEditorPanel\" (localizedPanelLabel(\"Node Editor\")) `;\n\tif ($nodeEditorPanelVisible || $nodeEditorWorkspaceControlOpen) {\n"
		+ "\t\tif (\"\" == $panelName) {\n\t\t\tif ($useSceneConfig) {\n\t\t\t\t$panelName = `scriptedPanel -unParent  -type \"nodeEditorPanel\" -l (localizedPanelLabel(\"Node Editor\")) -mbv $menusOkayInPanels `;\n\n\t\t\t$editorName = ($panelName+\"NodeEditorEd\");\n            nodeEditor -e \n                -allAttributes 0\n                -allNodes 0\n                -autoSizeNodes 1\n                -consistentNameSize 1\n                -createNodeCommand \"nodeEdCreateNodeCommand\" \n                -connectNodeOnCreation 0\n                -connectOnDrop 0\n                -copyConnectionsOnPaste 0\n                -connectionStyle \"bezier\" \n                -defaultPinnedState 0\n                -additiveGraphingMode 0\n                -settingsChangedCallback \"nodeEdSyncControls\" \n                -traversalDepthLimit -1\n                -keyPressCommand \"nodeEdKeyPressCommand\" \n                -nodeTitleMode \"name\" \n                -gridSnap 0\n                -gridVisibility 1\n                -crosshairOnEdgeDragging 0\n                -popupMenuScript \"nodeEdBuildPanelMenus\" \n"
		+ "                -showNamespace 1\n                -showShapes 1\n                -showSGShapes 0\n                -showTransforms 1\n                -useAssets 1\n                -syncedSelection 1\n                -extendToShapes 1\n                -editorMode \"default\" \n                -hasWatchpoint 0\n                $editorName;\n\t\t\t}\n\t\t} else {\n\t\t\t$label = `panel -q -label $panelName`;\n\t\t\tscriptedPanel -edit -l (localizedPanelLabel(\"Node Editor\")) -mbv $menusOkayInPanels  $panelName;\n\n\t\t\t$editorName = ($panelName+\"NodeEditorEd\");\n            nodeEditor -e \n                -allAttributes 0\n                -allNodes 0\n                -autoSizeNodes 1\n                -consistentNameSize 1\n                -createNodeCommand \"nodeEdCreateNodeCommand\" \n                -connectNodeOnCreation 0\n                -connectOnDrop 0\n                -copyConnectionsOnPaste 0\n                -connectionStyle \"bezier\" \n                -defaultPinnedState 0\n                -additiveGraphingMode 0\n                -settingsChangedCallback \"nodeEdSyncControls\" \n"
		+ "                -traversalDepthLimit -1\n                -keyPressCommand \"nodeEdKeyPressCommand\" \n                -nodeTitleMode \"name\" \n                -gridSnap 0\n                -gridVisibility 1\n                -crosshairOnEdgeDragging 0\n                -popupMenuScript \"nodeEdBuildPanelMenus\" \n                -showNamespace 1\n                -showShapes 1\n                -showSGShapes 0\n                -showTransforms 1\n                -useAssets 1\n                -syncedSelection 1\n                -extendToShapes 1\n                -editorMode \"default\" \n                -hasWatchpoint 0\n                $editorName;\n\t\t\tif (!$useSceneConfig) {\n\t\t\t\tpanel -e -l $label $panelName;\n\t\t\t}\n\t\t}\n\t}\n\n\n\t$panelName = `sceneUIReplacement -getNextScriptedPanel \"createNodePanel\" (localizedPanelLabel(\"Create Node\")) `;\n\tif (\"\" != $panelName) {\n\t\t$label = `panel -q -label $panelName`;\n\t\tscriptedPanel -edit -l (localizedPanelLabel(\"Create Node\")) -mbv $menusOkayInPanels  $panelName;\n\t\tif (!$useSceneConfig) {\n\t\t\tpanel -e -l $label $panelName;\n"
		+ "\t\t}\n\t}\n\n\n\t$panelName = `sceneUIReplacement -getNextScriptedPanel \"polyTexturePlacementPanel\" (localizedPanelLabel(\"UV Editor\")) `;\n\tif (\"\" != $panelName) {\n\t\t$label = `panel -q -label $panelName`;\n\t\tscriptedPanel -edit -l (localizedPanelLabel(\"UV Editor\")) -mbv $menusOkayInPanels  $panelName;\n\t\tif (!$useSceneConfig) {\n\t\t\tpanel -e -l $label $panelName;\n\t\t}\n\t}\n\n\n\t$panelName = `sceneUIReplacement -getNextScriptedPanel \"renderWindowPanel\" (localizedPanelLabel(\"Render View\")) `;\n\tif (\"\" != $panelName) {\n\t\t$label = `panel -q -label $panelName`;\n\t\tscriptedPanel -edit -l (localizedPanelLabel(\"Render View\")) -mbv $menusOkayInPanels  $panelName;\n\t\tif (!$useSceneConfig) {\n\t\t\tpanel -e -l $label $panelName;\n\t\t}\n\t}\n\n\n\t$panelName = `sceneUIReplacement -getNextPanel \"shapePanel\" (localizedPanelLabel(\"Shape Editor\")) `;\n\tif (\"\" != $panelName) {\n\t\t$label = `panel -q -label $panelName`;\n\t\tshapePanel -edit -l (localizedPanelLabel(\"Shape Editor\")) -mbv $menusOkayInPanels  $panelName;\n\t\tif (!$useSceneConfig) {\n\t\t\tpanel -e -l $label $panelName;\n"
		+ "\t\t}\n\t}\n\n\n\t$panelName = `sceneUIReplacement -getNextPanel \"posePanel\" (localizedPanelLabel(\"Pose Editor\")) `;\n\tif (\"\" != $panelName) {\n\t\t$label = `panel -q -label $panelName`;\n\t\tposePanel -edit -l (localizedPanelLabel(\"Pose Editor\")) -mbv $menusOkayInPanels  $panelName;\n\t\tif (!$useSceneConfig) {\n\t\t\tpanel -e -l $label $panelName;\n\t\t}\n\t}\n\n\n\t$panelName = `sceneUIReplacement -getNextScriptedPanel \"dynRelEdPanel\" (localizedPanelLabel(\"Dynamic Relationships\")) `;\n\tif (\"\" != $panelName) {\n\t\t$label = `panel -q -label $panelName`;\n\t\tscriptedPanel -edit -l (localizedPanelLabel(\"Dynamic Relationships\")) -mbv $menusOkayInPanels  $panelName;\n\t\tif (!$useSceneConfig) {\n\t\t\tpanel -e -l $label $panelName;\n\t\t}\n\t}\n\n\n\t$panelName = `sceneUIReplacement -getNextScriptedPanel \"relationshipPanel\" (localizedPanelLabel(\"Relationship Editor\")) `;\n\tif (\"\" != $panelName) {\n\t\t$label = `panel -q -label $panelName`;\n\t\tscriptedPanel -edit -l (localizedPanelLabel(\"Relationship Editor\")) -mbv $menusOkayInPanels  $panelName;\n\t\tif (!$useSceneConfig) {\n"
		+ "\t\t\tpanel -e -l $label $panelName;\n\t\t}\n\t}\n\n\n\t$panelName = `sceneUIReplacement -getNextScriptedPanel \"referenceEditorPanel\" (localizedPanelLabel(\"Reference Editor\")) `;\n\tif (\"\" != $panelName) {\n\t\t$label = `panel -q -label $panelName`;\n\t\tscriptedPanel -edit -l (localizedPanelLabel(\"Reference Editor\")) -mbv $menusOkayInPanels  $panelName;\n\t\tif (!$useSceneConfig) {\n\t\t\tpanel -e -l $label $panelName;\n\t\t}\n\t}\n\n\n\t$panelName = `sceneUIReplacement -getNextScriptedPanel \"componentEditorPanel\" (localizedPanelLabel(\"Component Editor\")) `;\n\tif (\"\" != $panelName) {\n\t\t$label = `panel -q -label $panelName`;\n\t\tscriptedPanel -edit -l (localizedPanelLabel(\"Component Editor\")) -mbv $menusOkayInPanels  $panelName;\n\t\tif (!$useSceneConfig) {\n\t\t\tpanel -e -l $label $panelName;\n\t\t}\n\t}\n\n\n\t$panelName = `sceneUIReplacement -getNextScriptedPanel \"dynPaintScriptedPanelType\" (localizedPanelLabel(\"Paint Effects\")) `;\n\tif (\"\" != $panelName) {\n\t\t$label = `panel -q -label $panelName`;\n\t\tscriptedPanel -edit -l (localizedPanelLabel(\"Paint Effects\")) -mbv $menusOkayInPanels  $panelName;\n"
		+ "\t\tif (!$useSceneConfig) {\n\t\t\tpanel -e -l $label $panelName;\n\t\t}\n\t}\n\n\n\t$panelName = `sceneUIReplacement -getNextScriptedPanel \"scriptEditorPanel\" (localizedPanelLabel(\"Script Editor\")) `;\n\tif (\"\" != $panelName) {\n\t\t$label = `panel -q -label $panelName`;\n\t\tscriptedPanel -edit -l (localizedPanelLabel(\"Script Editor\")) -mbv $menusOkayInPanels  $panelName;\n\t\tif (!$useSceneConfig) {\n\t\t\tpanel -e -l $label $panelName;\n\t\t}\n\t}\n\n\n\t$panelName = `sceneUIReplacement -getNextScriptedPanel \"profilerPanel\" (localizedPanelLabel(\"Profiler Tool\")) `;\n\tif (\"\" != $panelName) {\n\t\t$label = `panel -q -label $panelName`;\n\t\tscriptedPanel -edit -l (localizedPanelLabel(\"Profiler Tool\")) -mbv $menusOkayInPanels  $panelName;\n\t\tif (!$useSceneConfig) {\n\t\t\tpanel -e -l $label $panelName;\n\t\t}\n\t}\n\n\n\t$panelName = `sceneUIReplacement -getNextScriptedPanel \"contentBrowserPanel\" (localizedPanelLabel(\"Content Browser\")) `;\n\tif (\"\" != $panelName) {\n\t\t$label = `panel -q -label $panelName`;\n\t\tscriptedPanel -edit -l (localizedPanelLabel(\"Content Browser\")) -mbv $menusOkayInPanels  $panelName;\n"
		+ "\t\tif (!$useSceneConfig) {\n\t\t\tpanel -e -l $label $panelName;\n\t\t}\n\t}\n\n\n\tif ($useSceneConfig) {\n        string $configName = `getPanel -cwl (localizedPanelLabel(\"Current Layout\"))`;\n        if (\"\" != $configName) {\n\t\t\tpanelConfiguration -edit -label (localizedPanelLabel(\"Current Layout\")) \n\t\t\t\t-userCreated false\n\t\t\t\t-defaultImage \"\"\n\t\t\t\t-image \"\"\n\t\t\t\t-sc false\n\t\t\t\t-configString \"global string $gMainPane; paneLayout -e -cn \\\"single\\\" -ps 1 100 100 $gMainPane;\"\n\t\t\t\t-removeAllPanels\n\t\t\t\t-ap false\n\t\t\t\t\t(localizedPanelLabel(\"Persp View\")) \n\t\t\t\t\t\"modelPanel\"\n"
		+ "\t\t\t\t\t\"$panelName = `modelPanel -unParent -l (localizedPanelLabel(\\\"Persp View\\\")) -mbv $menusOkayInPanels `;\\n$editorName = $panelName;\\nmodelEditor -e \\n    -cam `findStartUpCamera persp` \\n    -useInteractiveMode 0\\n    -displayLights \\\"default\\\" \\n    -displayAppearance \\\"smoothShaded\\\" \\n    -activeOnly 0\\n    -ignorePanZoom 0\\n    -wireframeOnShaded 0\\n    -headsUpDisplay 1\\n    -holdOuts 1\\n    -selectionHiliteDisplay 1\\n    -useDefaultMaterial 0\\n    -bufferMode \\\"double\\\" \\n    -twoSidedLighting 0\\n    -backfaceCulling 0\\n    -xray 0\\n    -jointXray 0\\n    -activeComponentsXray 0\\n    -displayTextures 0\\n    -smoothWireframe 0\\n    -lineWidth 1\\n    -textureAnisotropic 0\\n    -textureHilight 1\\n    -textureSampling 2\\n    -textureDisplay \\\"modulate\\\" \\n    -textureMaxSize 32768\\n    -fogging 0\\n    -fogSource \\\"fragment\\\" \\n    -fogMode \\\"linear\\\" \\n    -fogStart 0\\n    -fogEnd 100\\n    -fogDensity 0.1\\n    -fogColor 0.5 0.5 0.5 1 \\n    -depthOfFieldPreview 1\\n    -maxConstantTransparency 1\\n    -rendererName \\\"vp2Renderer\\\" \\n    -objectFilterShowInHUD 1\\n    -isFiltered 0\\n    -colorResolution 256 256 \\n    -bumpResolution 512 512 \\n    -textureCompression 0\\n    -transparencyAlgorithm \\\"frontAndBackCull\\\" \\n    -transpInShadows 0\\n    -cullingOverride \\\"none\\\" \\n    -lowQualityLighting 0\\n    -maximumNumHardwareLights 1\\n    -occlusionCulling 0\\n    -shadingModel 0\\n    -useBaseRenderer 0\\n    -useReducedRenderer 0\\n    -smallObjectCulling 0\\n    -smallObjectThreshold -1 \\n    -interactiveDisableShadows 0\\n    -interactiveBackFaceCull 0\\n    -sortTransparent 1\\n    -controllers 1\\n    -nurbsCurves 1\\n    -nurbsSurfaces 1\\n    -polymeshes 1\\n    -subdivSurfaces 1\\n    -planes 1\\n    -lights 1\\n    -cameras 1\\n    -controlVertices 1\\n    -hulls 1\\n    -grid 1\\n    -imagePlane 1\\n    -joints 1\\n    -ikHandles 1\\n    -deformers 1\\n    -dynamics 1\\n    -particleInstancers 1\\n    -fluids 1\\n    -hairSystems 1\\n    -follicles 1\\n    -nCloths 1\\n    -nParticles 1\\n    -nRigids 1\\n    -dynamicConstraints 1\\n    -locators 1\\n    -manipulators 1\\n    -pluginShapes 1\\n    -dimensions 1\\n    -handles 1\\n    -pivots 1\\n    -textures 1\\n    -strokes 1\\n    -motionTrails 1\\n    -clipGhosts 1\\n    -greasePencils 1\\n    -shadows 0\\n    -captureSequenceNumber -1\\n    -width 1581\\n    -height 702\\n    -sceneRenderFilter 0\\n    $editorName;\\nmodelEditor -e -viewSelected 0 $editorName;\\nmodelEditor -e \\n    -pluginObjects \\\"gpuCacheDisplayFilter\\\" 1 \\n    $editorName\"\n"
		+ "\t\t\t\t\t\"modelPanel -edit -l (localizedPanelLabel(\\\"Persp View\\\")) -mbv $menusOkayInPanels  $panelName;\\n$editorName = $panelName;\\nmodelEditor -e \\n    -cam `findStartUpCamera persp` \\n    -useInteractiveMode 0\\n    -displayLights \\\"default\\\" \\n    -displayAppearance \\\"smoothShaded\\\" \\n    -activeOnly 0\\n    -ignorePanZoom 0\\n    -wireframeOnShaded 0\\n    -headsUpDisplay 1\\n    -holdOuts 1\\n    -selectionHiliteDisplay 1\\n    -useDefaultMaterial 0\\n    -bufferMode \\\"double\\\" \\n    -twoSidedLighting 0\\n    -backfaceCulling 0\\n    -xray 0\\n    -jointXray 0\\n    -activeComponentsXray 0\\n    -displayTextures 0\\n    -smoothWireframe 0\\n    -lineWidth 1\\n    -textureAnisotropic 0\\n    -textureHilight 1\\n    -textureSampling 2\\n    -textureDisplay \\\"modulate\\\" \\n    -textureMaxSize 32768\\n    -fogging 0\\n    -fogSource \\\"fragment\\\" \\n    -fogMode \\\"linear\\\" \\n    -fogStart 0\\n    -fogEnd 100\\n    -fogDensity 0.1\\n    -fogColor 0.5 0.5 0.5 1 \\n    -depthOfFieldPreview 1\\n    -maxConstantTransparency 1\\n    -rendererName \\\"vp2Renderer\\\" \\n    -objectFilterShowInHUD 1\\n    -isFiltered 0\\n    -colorResolution 256 256 \\n    -bumpResolution 512 512 \\n    -textureCompression 0\\n    -transparencyAlgorithm \\\"frontAndBackCull\\\" \\n    -transpInShadows 0\\n    -cullingOverride \\\"none\\\" \\n    -lowQualityLighting 0\\n    -maximumNumHardwareLights 1\\n    -occlusionCulling 0\\n    -shadingModel 0\\n    -useBaseRenderer 0\\n    -useReducedRenderer 0\\n    -smallObjectCulling 0\\n    -smallObjectThreshold -1 \\n    -interactiveDisableShadows 0\\n    -interactiveBackFaceCull 0\\n    -sortTransparent 1\\n    -controllers 1\\n    -nurbsCurves 1\\n    -nurbsSurfaces 1\\n    -polymeshes 1\\n    -subdivSurfaces 1\\n    -planes 1\\n    -lights 1\\n    -cameras 1\\n    -controlVertices 1\\n    -hulls 1\\n    -grid 1\\n    -imagePlane 1\\n    -joints 1\\n    -ikHandles 1\\n    -deformers 1\\n    -dynamics 1\\n    -particleInstancers 1\\n    -fluids 1\\n    -hairSystems 1\\n    -follicles 1\\n    -nCloths 1\\n    -nParticles 1\\n    -nRigids 1\\n    -dynamicConstraints 1\\n    -locators 1\\n    -manipulators 1\\n    -pluginShapes 1\\n    -dimensions 1\\n    -handles 1\\n    -pivots 1\\n    -textures 1\\n    -strokes 1\\n    -motionTrails 1\\n    -clipGhosts 1\\n    -greasePencils 1\\n    -shadows 0\\n    -captureSequenceNumber -1\\n    -width 1581\\n    -height 702\\n    -sceneRenderFilter 0\\n    $editorName;\\nmodelEditor -e -viewSelected 0 $editorName;\\nmodelEditor -e \\n    -pluginObjects \\\"gpuCacheDisplayFilter\\\" 1 \\n    $editorName\"\n"
		+ "\t\t\t\t$configName;\n\n            setNamedPanelLayout (localizedPanelLabel(\"Current Layout\"));\n        }\n\n        panelHistory -e -clear mainPanelHistory;\n        sceneUIReplacement -clear;\n\t}\n\n\ngrid -spacing 5 -size 12 -divisions 5 -displayAxes yes -displayGridLines yes -displayDivisionLines yes -displayPerspectiveLabels no -displayOrthographicLabels no -displayAxesBold yes -perspectiveLabelPosition axis -orthographicLabelPosition edge;\nviewManip -drawCompass 0 -compassAngle 0 -frontParameters \"\" -homeParameters \"\" -selectionLockParameters \"\";\n}\n");
	setAttr ".st" 3;
createNode script -n "sceneConfigurationScriptNode";
	rename -uid "F0135844-4E86-AA0A-C07E-429798A08C73";
	setAttr ".b" -type "string" "playbackOptions -min 1 -max 120 -ast 1 -aet 200 ";
	setAttr ".st" 6;
select -ne :time1;
	setAttr ".o" 1;
	setAttr ".unw" 1;
select -ne :hardwareRenderingGlobals;
	setAttr ".otfna" -type "stringArray" 22 "NURBS Curves" "NURBS Surfaces" "Polygons" "Subdiv Surface" "Particles" "Particle Instance" "Fluids" "Strokes" "Image Planes" "UI" "Lights" "Cameras" "Locators" "Joints" "IK Handles" "Deformers" "Motion Trails" "Components" "Hair Systems" "Follicles" "Misc. UI" "Ornaments"  ;
	setAttr ".otfva" -type "Int32Array" 22 0 1 1 1 1 1
		 1 1 1 0 0 0 0 0 0 0 0 0
		 0 0 0 0 ;
	setAttr ".fprt" yes;
select -ne :renderPartition;
	setAttr -s 2 ".st";
select -ne :renderGlobalsList1;
select -ne :defaultShaderList1;
	setAttr -s 4 ".s";
select -ne :postProcessList1;
	setAttr -s 2 ".p";
select -ne :defaultRenderingList1;
select -ne :initialShadingGroup;
	setAttr -s 5 ".dsm";
	setAttr ".ro" yes;
select -ne :initialParticleSE;
	setAttr ".ro" yes;
select -ne :defaultRenderGlobals;
	setAttr ".ren" -type "string" "arnold";
select -ne :defaultResolution;
	setAttr ".pa" 1;
select -ne :hardwareRenderGlobals;
	setAttr ".ctrs" 256;
	setAttr ".btrs" 512;
select -ne :ikSystem;
	setAttr -s 4 ".sol";
connectAttr "polySplitRing3.out" "pCylinderShape2.i";
connectAttr "polyPlatonic1.output" "pPlatonicShape1.i";
connectAttr "polyPlatonic2.output" "pPlatonicShape2.i";
relationship "link" ":lightLinker1" ":initialShadingGroup.message" ":defaultLightSet.message";
relationship "link" ":lightLinker1" ":initialParticleSE.message" ":defaultLightSet.message";
relationship "shadowLink" ":lightLinker1" ":initialShadingGroup.message" ":defaultLightSet.message";
relationship "shadowLink" ":lightLinker1" ":initialParticleSE.message" ":defaultLightSet.message";
connectAttr "layerManager.dli[0]" "defaultLayer.id";
connectAttr "renderLayerManager.rlmi[0]" "defaultRenderLayer.rlid";
connectAttr "polyCylinder2.out" "polySplitRing1.ip";
connectAttr "pCylinderShape2.wm" "polySplitRing1.mp";
connectAttr "polySplitRing1.out" "polySplitRing2.ip";
connectAttr "pCylinderShape2.wm" "polySplitRing2.mp";
connectAttr "polyTweak1.out" "polySplitRing3.ip";
connectAttr "pCylinderShape2.wm" "polySplitRing3.mp";
connectAttr "polySplitRing2.out" "polyTweak1.ip";
connectAttr "defaultRenderLayer.msg" ":defaultRenderingList1.r" -na;
connectAttr "pCylinderShape2.iog" ":initialShadingGroup.dsm" -na;
connectAttr "pCylinderShape3.iog" ":initialShadingGroup.dsm" -na;
connectAttr "pPlatonicShape1.iog" ":initialShadingGroup.dsm" -na;
connectAttr "pCylinderShape4.iog" ":initialShadingGroup.dsm" -na;
connectAttr "pPlatonicShape2.iog" ":initialShadingGroup.dsm" -na;
// End of Tree.ma
